,subjid,date,hour,adherence,visit,datetime,weekday
47713,1001039,2017-04-25 00:00:00,10,0.818181818181818,PHYS. PERF. TEST,2017-04-25 10:00:00,1
47714,1001039,2017-04-25 00:00:00,11,0.0,PHYS. PERF. TEST,2017-04-25 11:00:00,1
47715,1001039,2017-04-25 00:00:00,12,0.0,PHYS. PERF. TEST,2017-04-25 12:00:00,1
47716,1001039,2017-04-25 00:00:00,13,0.0,PHYS. PERF. TEST,2017-04-25 13:00:00,1
47717,1001039,2017-04-25 00:00:00,14,0.0,PHYS. PERF. TEST,2017-04-25 14:00:00,1
47718,1001039,2017-04-25 00:00:00,15,0.0,PHYS. PERF. TEST,2017-04-25 15:00:00,1
47719,1001039,2017-04-25 00:00:00,16,0.0,PHYS. PERF. TEST,2017-04-25 16:00:00,1
47720,1001039,2017-04-25 00:00:00,17,0.0,PHYS. PERF. TEST,2017-04-25 17:00:00,1
47721,1001039,2017-04-25 00:00:00,18,0.0,PHYS. PERF. TEST,2017-04-25 18:00:00,1
47722,1001039,2017-04-25 00:00:00,19,0.0,PHYS. PERF. TEST,2017-04-25 19:00:00,1
47723,1001039,2017-04-25 00:00:00,20,0.0,PHYS. PERF. TEST,2017-04-25 20:00:00,1
47724,1001039,2017-04-25 00:00:00,21,0.0,PHYS. PERF. TEST,2017-04-25 21:00:00,1
47725,1001039,2017-04-25 00:00:00,22,0.0,PHYS. PERF. TEST,2017-04-25 22:00:00,1
47726,1001039,2017-04-25 00:00:00,23,0.0,PHYS. PERF. TEST,2017-04-25 23:00:00,1
47727,1001039,2017-04-26 00:00:00,0,0.0,,2017-04-26 00:00:00,2
47728,1001039,2017-04-26 00:00:00,1,0.0,,2017-04-26 01:00:00,2
47729,1001039,2017-04-26 00:00:00,2,0.0,,2017-04-26 02:00:00,2
47730,1001039,2017-04-26 00:00:00,3,0.0,,2017-04-26 03:00:00,2
47731,1001039,2017-04-26 00:00:00,4,0.0,,2017-04-26 04:00:00,2
47732,1001039,2017-04-26 00:00:00,5,0.0,,2017-04-26 05:00:00,2
47733,1001039,2017-04-26 00:00:00,6,0.0,,2017-04-26 06:00:00,2
47734,1001039,2017-04-26 00:00:00,7,0.0,,2017-04-26 07:00:00,2
47735,1001039,2017-04-26 00:00:00,8,0.0,,2017-04-26 08:00:00,2
47736,1001039,2017-04-26 00:00:00,9,0.0,,2017-04-26 09:00:00,2
47737,1001039,2017-04-26 00:00:00,10,0.0,,2017-04-26 10:00:00,2
47738,1001039,2017-04-26 00:00:00,11,0.0,,2017-04-26 11:00:00,2
47739,1001039,2017-04-26 00:00:00,12,0.0,,2017-04-26 12:00:00,2
47740,1001039,2017-04-26 00:00:00,13,0.0,,2017-04-26 13:00:00,2
47741,1001039,2017-04-26 00:00:00,14,0.0,,2017-04-26 14:00:00,2
47742,1001039,2017-04-26 00:00:00,15,0.0,,2017-04-26 15:00:00,2
47743,1001039,2017-04-26 00:00:00,16,0.0,,2017-04-26 16:00:00,2
47744,1001039,2017-04-26 00:00:00,17,0.0,,2017-04-26 17:00:00,2
47745,1001039,2017-04-26 00:00:00,18,0.0,,2017-04-26 18:00:00,2
47746,1001039,2017-04-26 00:00:00,19,0.0,,2017-04-26 19:00:00,2
47747,1001039,2017-04-26 00:00:00,20,0.0,,2017-04-26 20:00:00,2
47748,1001039,2017-04-26 00:00:00,21,0.0,,2017-04-26 21:00:00,2
47749,1001039,2017-04-26 00:00:00,22,0.0,,2017-04-26 22:00:00,2
47750,1001039,2017-04-26 00:00:00,23,0.0,,2017-04-26 23:00:00,2
47751,1001039,2017-04-27 00:00:00,0,0.0,,2017-04-27 00:00:00,3
47752,1001039,2017-04-27 00:00:00,1,0.0,,2017-04-27 01:00:00,3
47753,1001039,2017-04-27 00:00:00,2,0.0,,2017-04-27 02:00:00,3
47754,1001039,2017-04-27 00:00:00,3,0.0,,2017-04-27 03:00:00,3
47755,1001039,2017-04-27 00:00:00,4,0.0,,2017-04-27 04:00:00,3
47756,1001039,2017-04-27 00:00:00,5,0.0,,2017-04-27 05:00:00,3
47757,1001039,2017-04-27 00:00:00,6,0.0,,2017-04-27 06:00:00,3
47758,1001039,2017-04-27 00:00:00,7,0.0,,2017-04-27 07:00:00,3
47759,1001039,2017-04-27 00:00:00,8,0.0,,2017-04-27 08:00:00,3
47760,1001039,2017-04-27 00:00:00,9,0.0,,2017-04-27 09:00:00,3
47761,1001039,2017-04-27 00:00:00,10,0.0,,2017-04-27 10:00:00,3
47762,1001039,2017-04-27 00:00:00,11,0.0,,2017-04-27 11:00:00,3
47763,1001039,2017-04-27 00:00:00,12,0.0,,2017-04-27 12:00:00,3
47764,1001039,2017-04-27 00:00:00,13,0.0,,2017-04-27 13:00:00,3
47765,1001039,2017-04-27 00:00:00,14,0.0,,2017-04-27 14:00:00,3
47766,1001039,2017-04-27 00:00:00,15,0.0,,2017-04-27 15:00:00,3
47767,1001039,2017-04-27 00:00:00,16,0.0,,2017-04-27 16:00:00,3
47768,1001039,2017-04-27 00:00:00,17,0.0,,2017-04-27 17:00:00,3
47769,1001039,2017-04-27 00:00:00,18,0.0,,2017-04-27 18:00:00,3
47770,1001039,2017-04-27 00:00:00,19,0.0,,2017-04-27 19:00:00,3
47771,1001039,2017-04-27 00:00:00,20,0.0,,2017-04-27 20:00:00,3
47772,1001039,2017-04-27 00:00:00,21,0.0,,2017-04-27 21:00:00,3
47773,1001039,2017-04-27 00:00:00,22,0.0,,2017-04-27 22:00:00,3
47774,1001039,2017-04-27 00:00:00,23,0.0,,2017-04-27 23:00:00,3
47775,1001039,2017-04-28 00:00:00,0,0.0,,2017-04-28 00:00:00,4
47776,1001039,2017-04-28 00:00:00,1,0.0,,2017-04-28 01:00:00,4
47777,1001039,2017-04-28 00:00:00,2,0.0,,2017-04-28 02:00:00,4
47778,1001039,2017-04-28 00:00:00,3,0.0,,2017-04-28 03:00:00,4
47779,1001039,2017-04-28 00:00:00,4,0.0,,2017-04-28 04:00:00,4
47780,1001039,2017-04-28 00:00:00,5,0.0,,2017-04-28 05:00:00,4
47781,1001039,2017-04-28 00:00:00,6,0.0,,2017-04-28 06:00:00,4
47782,1001039,2017-04-28 00:00:00,7,0.0,,2017-04-28 07:00:00,4
47783,1001039,2017-04-28 00:00:00,8,0.0,,2017-04-28 08:00:00,4
47784,1001039,2017-04-28 00:00:00,9,0.0,,2017-04-28 09:00:00,4
47785,1001039,2017-04-28 00:00:00,10,0.0,,2017-04-28 10:00:00,4
47786,1001039,2017-04-28 00:00:00,11,0.0,,2017-04-28 11:00:00,4
47787,1001039,2017-04-28 00:00:00,12,0.0,,2017-04-28 12:00:00,4
47788,1001039,2017-04-28 00:00:00,13,0.0,,2017-04-28 13:00:00,4
47789,1001039,2017-04-28 00:00:00,14,0.0,,2017-04-28 14:00:00,4
47790,1001039,2017-04-28 00:00:00,15,0.0,,2017-04-28 15:00:00,4
47791,1001039,2017-04-28 00:00:00,16,0.0,,2017-04-28 16:00:00,4
47792,1001039,2017-04-28 00:00:00,17,0.0,,2017-04-28 17:00:00,4
47793,1001039,2017-04-28 00:00:00,18,0.0,,2017-04-28 18:00:00,4
47794,1001039,2017-04-28 00:00:00,19,0.0,,2017-04-28 19:00:00,4
47795,1001039,2017-04-28 00:00:00,20,0.0,,2017-04-28 20:00:00,4
47796,1001039,2017-04-28 00:00:00,21,0.0,,2017-04-28 21:00:00,4
47797,1001039,2017-04-28 00:00:00,22,0.0,,2017-04-28 22:00:00,4
47798,1001039,2017-04-28 00:00:00,23,0.0,,2017-04-28 23:00:00,4
47799,1001039,2017-04-29 00:00:00,0,0.0,,2017-04-29 00:00:00,5
47800,1001039,2017-04-29 00:00:00,1,0.0,,2017-04-29 01:00:00,5
47801,1001039,2017-04-29 00:00:00,2,0.0,,2017-04-29 02:00:00,5
47802,1001039,2017-04-29 00:00:00,3,0.0,,2017-04-29 03:00:00,5
47803,1001039,2017-04-29 00:00:00,4,0.0,,2017-04-29 04:00:00,5
47804,1001039,2017-04-29 00:00:00,5,0.0,,2017-04-29 05:00:00,5
47805,1001039,2017-04-29 00:00:00,6,0.0,,2017-04-29 06:00:00,5
47806,1001039,2017-04-29 00:00:00,7,0.0,,2017-04-29 07:00:00,5
47807,1001039,2017-04-29 00:00:00,8,0.0,,2017-04-29 08:00:00,5
47808,1001039,2017-04-29 00:00:00,9,0.0,,2017-04-29 09:00:00,5
47809,1001039,2017-04-29 00:00:00,10,0.0,,2017-04-29 10:00:00,5
47810,1001039,2017-04-29 00:00:00,11,0.0,,2017-04-29 11:00:00,5
47811,1001039,2017-04-29 00:00:00,12,0.0,,2017-04-29 12:00:00,5
47812,1001039,2017-04-29 00:00:00,13,0.0,,2017-04-29 13:00:00,5
47813,1001039,2017-04-29 00:00:00,14,0.0,,2017-04-29 14:00:00,5
47814,1001039,2017-04-29 00:00:00,15,0.0,,2017-04-29 15:00:00,5
47815,1001039,2017-04-29 00:00:00,16,0.0,,2017-04-29 16:00:00,5
47816,1001039,2017-04-29 00:00:00,17,0.0,,2017-04-29 17:00:00,5
47817,1001039,2017-04-29 00:00:00,18,0.0,,2017-04-29 18:00:00,5
47818,1001039,2017-04-29 00:00:00,19,0.0,,2017-04-29 19:00:00,5
47819,1001039,2017-04-29 00:00:00,20,0.0,,2017-04-29 20:00:00,5
47820,1001039,2017-04-29 00:00:00,21,0.0,,2017-04-29 21:00:00,5
47821,1001039,2017-04-29 00:00:00,22,0.0,,2017-04-29 22:00:00,5
47822,1001039,2017-04-29 00:00:00,23,0.0,,2017-04-29 23:00:00,5
47823,1001039,2017-04-30 00:00:00,0,0.0,,2017-04-30 00:00:00,6
47824,1001039,2017-04-30 00:00:00,1,0.0,,2017-04-30 01:00:00,6
47825,1001039,2017-04-30 00:00:00,2,0.0,,2017-04-30 02:00:00,6
47826,1001039,2017-04-30 00:00:00,3,0.0,,2017-04-30 03:00:00,6
47827,1001039,2017-04-30 00:00:00,4,0.0,,2017-04-30 04:00:00,6
47828,1001039,2017-04-30 00:00:00,5,0.0,,2017-04-30 05:00:00,6
47829,1001039,2017-04-30 00:00:00,6,0.0,,2017-04-30 06:00:00,6
47830,1001039,2017-04-30 00:00:00,7,0.0,,2017-04-30 07:00:00,6
47831,1001039,2017-04-30 00:00:00,8,0.0,,2017-04-30 08:00:00,6
47832,1001039,2017-04-30 00:00:00,9,0.0,,2017-04-30 09:00:00,6
47833,1001039,2017-04-30 00:00:00,10,0.0,,2017-04-30 10:00:00,6
47834,1001039,2017-04-30 00:00:00,11,0.0,,2017-04-30 11:00:00,6
47835,1001039,2017-04-30 00:00:00,12,0.0,,2017-04-30 12:00:00,6
47836,1001039,2017-04-30 00:00:00,13,0.0,,2017-04-30 13:00:00,6
47837,1001039,2017-04-30 00:00:00,14,0.0,,2017-04-30 14:00:00,6
47838,1001039,2017-04-30 00:00:00,15,0.0,,2017-04-30 15:00:00,6
47839,1001039,2017-04-30 00:00:00,16,0.0,,2017-04-30 16:00:00,6
47840,1001039,2017-04-30 00:00:00,17,0.0,,2017-04-30 17:00:00,6
47841,1001039,2017-04-30 00:00:00,18,0.0,,2017-04-30 18:00:00,6
47842,1001039,2017-04-30 00:00:00,19,0.0,,2017-04-30 19:00:00,6
47843,1001039,2017-04-30 00:00:00,20,0.0,,2017-04-30 20:00:00,6
47844,1001039,2017-04-30 00:00:00,21,0.0,,2017-04-30 21:00:00,6
47845,1001039,2017-04-30 00:00:00,22,0.0,,2017-04-30 22:00:00,6
47846,1001039,2017-04-30 00:00:00,23,0.0,,2017-04-30 23:00:00,6
47847,1001039,2017-05-01 00:00:00,0,0.0,,2017-05-01 00:00:00,0
47848,1001039,2017-05-01 00:00:00,1,0.0,,2017-05-01 01:00:00,0
47849,1001039,2017-05-01 00:00:00,2,0.0,,2017-05-01 02:00:00,0
47850,1001039,2017-05-01 00:00:00,3,0.0,,2017-05-01 03:00:00,0
47851,1001039,2017-05-01 00:00:00,4,0.0,,2017-05-01 04:00:00,0
47852,1001039,2017-05-01 00:00:00,5,0.0,,2017-05-01 05:00:00,0
47853,1001039,2017-05-01 00:00:00,6,0.0,,2017-05-01 06:00:00,0
47854,1001039,2017-05-01 00:00:00,7,0.0,,2017-05-01 07:00:00,0
47855,1001039,2017-05-01 00:00:00,8,0.0,,2017-05-01 08:00:00,0
47856,1001039,2017-05-01 00:00:00,9,0.0,,2017-05-01 09:00:00,0
47857,1001039,2017-05-01 00:00:00,10,0.0,,2017-05-01 10:00:00,0
47858,1001039,2017-05-01 00:00:00,11,0.0,,2017-05-01 11:00:00,0
47859,1001039,2017-05-01 00:00:00,12,0.0,,2017-05-01 12:00:00,0
47860,1001039,2017-05-01 00:00:00,13,0.0,,2017-05-01 13:00:00,0
47861,1001039,2017-05-01 00:00:00,14,0.0,,2017-05-01 14:00:00,0
47862,1001039,2017-05-01 00:00:00,15,0.0,,2017-05-01 15:00:00,0
47863,1001039,2017-05-01 00:00:00,16,0.0,,2017-05-01 16:00:00,0
47864,1001039,2017-05-01 00:00:00,17,0.0,,2017-05-01 17:00:00,0
47865,1001039,2017-05-01 00:00:00,18,0.0,,2017-05-01 18:00:00,0
47866,1001039,2017-05-01 00:00:00,19,0.0,,2017-05-01 19:00:00,0
47867,1001039,2017-05-01 00:00:00,20,0.0,,2017-05-01 20:00:00,0
47868,1001039,2017-05-01 00:00:00,21,0.0,,2017-05-01 21:00:00,0
47869,1001039,2017-05-01 00:00:00,22,0.0,,2017-05-01 22:00:00,0
47870,1001039,2017-05-01 00:00:00,23,0.0,,2017-05-01 23:00:00,0
47871,1001039,2017-05-02 00:00:00,0,0.0,,2017-05-02 00:00:00,1
47872,1001039,2017-05-02 00:00:00,1,0.0,,2017-05-02 01:00:00,1
47873,1001039,2017-05-02 00:00:00,2,0.0,,2017-05-02 02:00:00,1
47874,1001039,2017-05-02 00:00:00,3,0.0,,2017-05-02 03:00:00,1
47875,1001039,2017-05-02 00:00:00,4,0.0,,2017-05-02 04:00:00,1
47876,1001039,2017-05-02 00:00:00,5,0.0,,2017-05-02 05:00:00,1
47877,1001039,2017-05-02 00:00:00,6,0.0,,2017-05-02 06:00:00,1
47878,1001039,2017-05-02 00:00:00,7,0.0,,2017-05-02 07:00:00,1
47879,1001039,2017-05-02 00:00:00,8,0.0,,2017-05-02 08:00:00,1
47880,1001039,2017-05-02 00:00:00,9,0.0,,2017-05-02 09:00:00,1
47881,1001039,2017-05-02 00:00:00,10,0.0,,2017-05-02 10:00:00,1
47882,1001039,2017-05-02 00:00:00,11,0.0,,2017-05-02 11:00:00,1
47883,1001039,2017-05-02 00:00:00,12,0.0,,2017-05-02 12:00:00,1
47884,1001039,2017-05-02 00:00:00,13,0.0,,2017-05-02 13:00:00,1
47885,1001039,2017-05-02 00:00:00,14,0.0,,2017-05-02 14:00:00,1
47886,1001039,2017-05-02 00:00:00,15,0.0,,2017-05-02 15:00:00,1
47887,1001039,2017-05-02 00:00:00,16,0.0,,2017-05-02 16:00:00,1
47888,1001039,2017-05-02 00:00:00,17,0.0,,2017-05-02 17:00:00,1
47889,1001039,2017-05-02 00:00:00,18,0.0,,2017-05-02 18:00:00,1
47890,1001039,2017-05-02 00:00:00,19,0.0,,2017-05-02 19:00:00,1
47891,1001039,2017-05-02 00:00:00,20,0.0,,2017-05-02 20:00:00,1
47892,1001039,2017-05-02 00:00:00,21,0.0,,2017-05-02 21:00:00,1
47893,1001039,2017-05-02 00:00:00,22,0.0,,2017-05-02 22:00:00,1
47894,1001039,2017-05-02 00:00:00,23,0.0,,2017-05-02 23:00:00,1
47895,1001039,2017-05-03 00:00:00,0,0.0,,2017-05-03 00:00:00,2
47896,1001039,2017-05-03 00:00:00,1,0.0,,2017-05-03 01:00:00,2
47897,1001039,2017-05-03 00:00:00,2,0.0,,2017-05-03 02:00:00,2
47898,1001039,2017-05-03 00:00:00,3,0.0,,2017-05-03 03:00:00,2
47899,1001039,2017-05-03 00:00:00,4,0.0,,2017-05-03 04:00:00,2
47900,1001039,2017-05-03 00:00:00,5,0.0,,2017-05-03 05:00:00,2
47901,1001039,2017-05-03 00:00:00,6,0.0,,2017-05-03 06:00:00,2
47902,1001039,2017-05-03 00:00:00,7,0.0,,2017-05-03 07:00:00,2
47903,1001039,2017-05-03 00:00:00,8,0.0,,2017-05-03 08:00:00,2
47904,1001039,2017-05-03 00:00:00,9,0.0,,2017-05-03 09:00:00,2
47905,1001039,2017-05-03 00:00:00,10,0.0,,2017-05-03 10:00:00,2
47906,1001039,2017-05-03 00:00:00,11,0.0,,2017-05-03 11:00:00,2
47907,1001039,2017-05-03 00:00:00,12,0.0,,2017-05-03 12:00:00,2
47908,1001039,2017-05-03 00:00:00,13,0.0,,2017-05-03 13:00:00,2
47909,1001039,2017-05-03 00:00:00,14,0.0,,2017-05-03 14:00:00,2
47910,1001039,2017-05-03 00:00:00,15,0.0,,2017-05-03 15:00:00,2
47911,1001039,2017-05-03 00:00:00,16,0.0,,2017-05-03 16:00:00,2
47912,1001039,2017-05-03 00:00:00,17,0.0,,2017-05-03 17:00:00,2
47913,1001039,2017-05-03 00:00:00,18,0.0,,2017-05-03 18:00:00,2
47914,1001039,2017-05-03 00:00:00,19,0.0,,2017-05-03 19:00:00,2
47915,1001039,2017-05-03 00:00:00,20,0.0,,2017-05-03 20:00:00,2
47916,1001039,2017-05-03 00:00:00,21,0.0,,2017-05-03 21:00:00,2
47917,1001039,2017-05-03 00:00:00,22,0.0,,2017-05-03 22:00:00,2
47918,1001039,2017-05-03 00:00:00,23,0.0,,2017-05-03 23:00:00,2
47919,1001039,2017-05-04 00:00:00,0,0.0,,2017-05-04 00:00:00,3
47920,1001039,2017-05-04 00:00:00,1,0.0,,2017-05-04 01:00:00,3
47921,1001039,2017-05-04 00:00:00,2,0.0,,2017-05-04 02:00:00,3
47922,1001039,2017-05-04 00:00:00,3,0.0,,2017-05-04 03:00:00,3
47923,1001039,2017-05-04 00:00:00,4,0.0,,2017-05-04 04:00:00,3
47924,1001039,2017-05-04 00:00:00,5,0.0,,2017-05-04 05:00:00,3
47925,1001039,2017-05-04 00:00:00,6,0.0,,2017-05-04 06:00:00,3
47926,1001039,2017-05-04 00:00:00,7,0.0,,2017-05-04 07:00:00,3
47927,1001039,2017-05-04 00:00:00,8,0.0,,2017-05-04 08:00:00,3
47928,1001039,2017-05-04 00:00:00,9,0.0,,2017-05-04 09:00:00,3
47929,1001039,2017-05-04 00:00:00,10,0.0,,2017-05-04 10:00:00,3
47930,1001039,2017-05-04 00:00:00,11,0.0,,2017-05-04 11:00:00,3
47931,1001039,2017-05-04 00:00:00,12,0.0,,2017-05-04 12:00:00,3
47932,1001039,2017-05-04 00:00:00,13,0.0,,2017-05-04 13:00:00,3
47933,1001039,2017-05-04 00:00:00,14,0.0,,2017-05-04 14:00:00,3
47934,1001039,2017-05-04 00:00:00,15,0.0,,2017-05-04 15:00:00,3
47935,1001039,2017-05-04 00:00:00,16,0.0,,2017-05-04 16:00:00,3
47936,1001039,2017-05-04 00:00:00,17,0.0,,2017-05-04 17:00:00,3
47937,1001039,2017-05-04 00:00:00,18,0.0,,2017-05-04 18:00:00,3
47938,1001039,2017-05-04 00:00:00,19,0.0,,2017-05-04 19:00:00,3
47939,1001039,2017-05-04 00:00:00,20,0.0,,2017-05-04 20:00:00,3
47940,1001039,2017-05-04 00:00:00,21,0.0,,2017-05-04 21:00:00,3
47941,1001039,2017-05-04 00:00:00,22,0.0,,2017-05-04 22:00:00,3
47942,1001039,2017-05-04 00:00:00,23,0.0,,2017-05-04 23:00:00,3
47943,1001039,2017-05-05 00:00:00,0,0.0,,2017-05-05 00:00:00,4
47944,1001039,2017-05-05 00:00:00,1,0.0,,2017-05-05 01:00:00,4
47945,1001039,2017-05-05 00:00:00,2,0.0,,2017-05-05 02:00:00,4
47946,1001039,2017-05-05 00:00:00,3,0.0,,2017-05-05 03:00:00,4
47947,1001039,2017-05-05 00:00:00,4,0.0,,2017-05-05 04:00:00,4
47948,1001039,2017-05-05 00:00:00,5,0.0,,2017-05-05 05:00:00,4
47949,1001039,2017-05-05 00:00:00,6,0.0,,2017-05-05 06:00:00,4
47950,1001039,2017-05-05 00:00:00,7,0.0,,2017-05-05 07:00:00,4
47951,1001039,2017-05-05 00:00:00,8,0.0,,2017-05-05 08:00:00,4
47952,1001039,2017-05-05 00:00:00,9,0.0,,2017-05-05 09:00:00,4
47953,1001039,2017-05-05 00:00:00,10,0.0,,2017-05-05 10:00:00,4
47954,1001039,2017-05-05 00:00:00,11,0.0,,2017-05-05 11:00:00,4
47955,1001039,2017-05-05 00:00:00,12,0.0,,2017-05-05 12:00:00,4
47956,1001039,2017-05-05 00:00:00,13,0.0,,2017-05-05 13:00:00,4
47957,1001039,2017-05-05 00:00:00,14,0.0,,2017-05-05 14:00:00,4
47958,1001039,2017-05-05 00:00:00,15,0.0,,2017-05-05 15:00:00,4
47959,1001039,2017-05-05 00:00:00,16,0.0,,2017-05-05 16:00:00,4
47960,1001039,2017-05-05 00:00:00,17,0.0,,2017-05-05 17:00:00,4
47961,1001039,2017-05-05 00:00:00,18,0.0,,2017-05-05 18:00:00,4
47962,1001039,2017-05-05 00:00:00,19,0.0,,2017-05-05 19:00:00,4
47963,1001039,2017-05-05 00:00:00,20,0.0,,2017-05-05 20:00:00,4
47964,1001039,2017-05-05 00:00:00,21,0.0,,2017-05-05 21:00:00,4
47965,1001039,2017-05-05 00:00:00,22,0.0,,2017-05-05 22:00:00,4
47966,1001039,2017-05-05 00:00:00,23,0.0,,2017-05-05 23:00:00,4
47967,1001039,2017-05-06 00:00:00,0,0.0,,2017-05-06 00:00:00,5
47968,1001039,2017-05-06 00:00:00,1,0.0,,2017-05-06 01:00:00,5
47969,1001039,2017-05-06 00:00:00,2,0.0,,2017-05-06 02:00:00,5
47970,1001039,2017-05-06 00:00:00,3,0.0,,2017-05-06 03:00:00,5
47971,1001039,2017-05-06 00:00:00,4,0.0,,2017-05-06 04:00:00,5
47972,1001039,2017-05-06 00:00:00,5,0.0,,2017-05-06 05:00:00,5
47973,1001039,2017-05-06 00:00:00,6,0.0,,2017-05-06 06:00:00,5
47974,1001039,2017-05-06 00:00:00,7,0.0,,2017-05-06 07:00:00,5
47975,1001039,2017-05-06 00:00:00,8,0.0,,2017-05-06 08:00:00,5
47976,1001039,2017-05-06 00:00:00,9,0.0,,2017-05-06 09:00:00,5
47977,1001039,2017-05-06 00:00:00,10,0.0,,2017-05-06 10:00:00,5
47978,1001039,2017-05-06 00:00:00,11,0.0,,2017-05-06 11:00:00,5
47979,1001039,2017-05-06 00:00:00,12,0.0,,2017-05-06 12:00:00,5
47980,1001039,2017-05-06 00:00:00,13,0.0,,2017-05-06 13:00:00,5
47981,1001039,2017-05-06 00:00:00,14,0.0,,2017-05-06 14:00:00,5
47982,1001039,2017-05-06 00:00:00,15,0.0,,2017-05-06 15:00:00,5
47983,1001039,2017-05-06 00:00:00,16,0.0,,2017-05-06 16:00:00,5
47984,1001039,2017-05-06 00:00:00,17,0.0,,2017-05-06 17:00:00,5
47985,1001039,2017-05-06 00:00:00,18,0.0,,2017-05-06 18:00:00,5
47986,1001039,2017-05-06 00:00:00,19,0.0,,2017-05-06 19:00:00,5
47987,1001039,2017-05-06 00:00:00,20,0.0,,2017-05-06 20:00:00,5
47988,1001039,2017-05-06 00:00:00,21,0.0,,2017-05-06 21:00:00,5
47989,1001039,2017-05-06 00:00:00,22,0.0,,2017-05-06 22:00:00,5
47990,1001039,2017-05-06 00:00:00,23,0.0,,2017-05-06 23:00:00,5
47991,1001039,2017-05-07 00:00:00,0,0.0,,2017-05-07 00:00:00,6
47992,1001039,2017-05-07 00:00:00,1,0.0,,2017-05-07 01:00:00,6
47993,1001039,2017-05-07 00:00:00,2,0.0,,2017-05-07 02:00:00,6
47994,1001039,2017-05-07 00:00:00,3,0.0,,2017-05-07 03:00:00,6
47995,1001039,2017-05-07 00:00:00,4,0.0,,2017-05-07 04:00:00,6
47996,1001039,2017-05-07 00:00:00,5,0.0,,2017-05-07 05:00:00,6
47997,1001039,2017-05-07 00:00:00,6,0.0,,2017-05-07 06:00:00,6
47998,1001039,2017-05-07 00:00:00,7,0.0,,2017-05-07 07:00:00,6
47999,1001039,2017-05-07 00:00:00,8,0.0,,2017-05-07 08:00:00,6
48000,1001039,2017-05-07 00:00:00,9,0.0,,2017-05-07 09:00:00,6
48001,1001039,2017-05-07 00:00:00,10,0.0,,2017-05-07 10:00:00,6
48002,1001039,2017-05-07 00:00:00,11,0.0,,2017-05-07 11:00:00,6
48003,1001039,2017-05-07 00:00:00,12,0.0,,2017-05-07 12:00:00,6
48004,1001039,2017-05-07 00:00:00,13,0.0,,2017-05-07 13:00:00,6
48005,1001039,2017-05-07 00:00:00,14,0.0,,2017-05-07 14:00:00,6
48006,1001039,2017-05-07 00:00:00,15,0.0,,2017-05-07 15:00:00,6
48007,1001039,2017-05-07 00:00:00,16,0.0,,2017-05-07 16:00:00,6
48008,1001039,2017-05-07 00:00:00,17,0.0,,2017-05-07 17:00:00,6
48009,1001039,2017-05-07 00:00:00,18,0.0,,2017-05-07 18:00:00,6
48010,1001039,2017-05-07 00:00:00,19,0.0,,2017-05-07 19:00:00,6
48011,1001039,2017-05-07 00:00:00,20,0.0,,2017-05-07 20:00:00,6
48012,1001039,2017-05-07 00:00:00,21,0.0,,2017-05-07 21:00:00,6
48013,1001039,2017-05-07 00:00:00,22,0.0,,2017-05-07 22:00:00,6
48014,1001039,2017-05-07 00:00:00,23,0.0,,2017-05-07 23:00:00,6
48015,1001039,2017-05-08 00:00:00,0,0.0,,2017-05-08 00:00:00,0
48016,1001039,2017-05-08 00:00:00,1,0.0,,2017-05-08 01:00:00,0
48017,1001039,2017-05-08 00:00:00,2,0.0,,2017-05-08 02:00:00,0
48018,1001039,2017-05-08 00:00:00,3,0.0,,2017-05-08 03:00:00,0
48019,1001039,2017-05-08 00:00:00,4,0.0,,2017-05-08 04:00:00,0
48020,1001039,2017-05-08 00:00:00,5,0.0,,2017-05-08 05:00:00,0
48021,1001039,2017-05-08 00:00:00,6,0.0,,2017-05-08 06:00:00,0
48022,1001039,2017-05-08 00:00:00,7,0.0,,2017-05-08 07:00:00,0
48023,1001039,2017-05-08 00:00:00,8,0.0,,2017-05-08 08:00:00,0
48024,1001039,2017-05-08 00:00:00,9,0.0,,2017-05-08 09:00:00,0
48025,1001039,2017-05-08 00:00:00,10,0.0,,2017-05-08 10:00:00,0
48026,1001039,2017-05-08 00:00:00,11,0.0,,2017-05-08 11:00:00,0
48027,1001039,2017-05-08 00:00:00,12,0.0,,2017-05-08 12:00:00,0
48028,1001039,2017-05-08 00:00:00,13,0.0,,2017-05-08 13:00:00,0
48029,1001039,2017-05-08 00:00:00,14,0.0,,2017-05-08 14:00:00,0
48030,1001039,2017-05-08 00:00:00,15,0.0,,2017-05-08 15:00:00,0
48031,1001039,2017-05-08 00:00:00,16,0.0,,2017-05-08 16:00:00,0
48032,1001039,2017-05-08 00:00:00,17,0.0,,2017-05-08 17:00:00,0
48033,1001039,2017-05-08 00:00:00,18,0.0,,2017-05-08 18:00:00,0
48034,1001039,2017-05-08 00:00:00,19,0.0,,2017-05-08 19:00:00,0
48035,1001039,2017-05-08 00:00:00,20,0.0,,2017-05-08 20:00:00,0
48036,1001039,2017-05-08 00:00:00,21,0.0,,2017-05-08 21:00:00,0
48037,1001039,2017-05-08 00:00:00,22,0.0,,2017-05-08 22:00:00,0
48038,1001039,2017-05-08 00:00:00,23,0.0,,2017-05-08 23:00:00,0
48039,1001039,2017-05-09 00:00:00,0,0.0,,2017-05-09 00:00:00,1
48040,1001039,2017-05-09 00:00:00,1,0.0,,2017-05-09 01:00:00,1
48041,1001039,2017-05-09 00:00:00,2,0.0,,2017-05-09 02:00:00,1
48042,1001039,2017-05-09 00:00:00,3,0.0,,2017-05-09 03:00:00,1
48043,1001039,2017-05-09 00:00:00,4,0.0,,2017-05-09 04:00:00,1
48044,1001039,2017-05-09 00:00:00,5,0.0,,2017-05-09 05:00:00,1
48045,1001039,2017-05-09 00:00:00,6,0.0,,2017-05-09 06:00:00,1
48046,1001039,2017-05-09 00:00:00,7,0.0,,2017-05-09 07:00:00,1
48047,1001039,2017-05-09 00:00:00,8,0.0,,2017-05-09 08:00:00,1
48048,1001039,2017-05-09 00:00:00,9,0.0,,2017-05-09 09:00:00,1
48049,1001039,2017-05-09 00:00:00,10,0.0,,2017-05-09 10:00:00,1
48050,1001039,2017-05-09 00:00:00,11,0.0,,2017-05-09 11:00:00,1
48051,1001039,2017-05-09 00:00:00,12,0.0,,2017-05-09 12:00:00,1
48052,1001039,2017-05-09 00:00:00,13,0.0,,2017-05-09 13:00:00,1
48053,1001039,2017-05-09 00:00:00,14,0.0,,2017-05-09 14:00:00,1
48054,1001039,2017-05-09 00:00:00,15,0.0,,2017-05-09 15:00:00,1
48055,1001039,2017-05-09 00:00:00,16,0.0,,2017-05-09 16:00:00,1
48056,1001039,2017-05-09 00:00:00,17,0.0,,2017-05-09 17:00:00,1
48057,1001039,2017-05-09 00:00:00,18,0.0,,2017-05-09 18:00:00,1
48058,1001039,2017-05-09 00:00:00,19,0.0,,2017-05-09 19:00:00,1
48059,1001039,2017-05-09 00:00:00,20,0.0,,2017-05-09 20:00:00,1
48060,1001039,2017-05-09 00:00:00,21,0.0,,2017-05-09 21:00:00,1
48061,1001039,2017-05-09 00:00:00,22,0.0,,2017-05-09 22:00:00,1
48062,1001039,2017-05-09 00:00:00,23,0.0,,2017-05-09 23:00:00,1
48063,1001039,2017-05-10 00:00:00,0,0.0,,2017-05-10 00:00:00,2
48064,1001039,2017-05-10 00:00:00,1,0.0,,2017-05-10 01:00:00,2
48065,1001039,2017-05-10 00:00:00,2,0.0,,2017-05-10 02:00:00,2
48066,1001039,2017-05-10 00:00:00,3,0.0,,2017-05-10 03:00:00,2
48067,1001039,2017-05-10 00:00:00,4,0.0,,2017-05-10 04:00:00,2
48068,1001039,2017-05-10 00:00:00,5,0.0,,2017-05-10 05:00:00,2
48069,1001039,2017-05-10 00:00:00,6,0.0,,2017-05-10 06:00:00,2
48070,1001039,2017-05-10 00:00:00,7,0.0,,2017-05-10 07:00:00,2
48071,1001039,2017-05-10 00:00:00,8,0.0,,2017-05-10 08:00:00,2
48072,1001039,2017-05-10 00:00:00,9,0.0,,2017-05-10 09:00:00,2
48073,1001039,2017-05-10 00:00:00,10,0.0,,2017-05-10 10:00:00,2
48074,1001039,2017-05-10 00:00:00,11,0.0,,2017-05-10 11:00:00,2
48075,1001039,2017-05-10 00:00:00,12,0.0,,2017-05-10 12:00:00,2
48076,1001039,2017-05-10 00:00:00,13,0.0,,2017-05-10 13:00:00,2
48077,1001039,2017-05-10 00:00:00,14,0.0,,2017-05-10 14:00:00,2
48078,1001039,2017-05-10 00:00:00,15,0.0,,2017-05-10 15:00:00,2
48079,1001039,2017-05-10 00:00:00,16,0.0,,2017-05-10 16:00:00,2
48080,1001039,2017-05-10 00:00:00,17,0.0,,2017-05-10 17:00:00,2
48081,1001039,2017-05-10 00:00:00,18,0.0,,2017-05-10 18:00:00,2
48082,1001039,2017-05-10 00:00:00,19,0.0,,2017-05-10 19:00:00,2
48083,1001039,2017-05-10 00:00:00,20,0.0,,2017-05-10 20:00:00,2
48084,1001039,2017-05-10 00:00:00,21,0.0,,2017-05-10 21:00:00,2
48085,1001039,2017-05-10 00:00:00,22,0.0,,2017-05-10 22:00:00,2
48086,1001039,2017-05-10 00:00:00,23,0.0,,2017-05-10 23:00:00,2
48087,1001039,2017-05-11 00:00:00,0,0.0,,2017-05-11 00:00:00,3
48088,1001039,2017-05-11 00:00:00,1,0.0,,2017-05-11 01:00:00,3
48089,1001039,2017-05-11 00:00:00,2,0.0,,2017-05-11 02:00:00,3
48090,1001039,2017-05-11 00:00:00,3,0.0,,2017-05-11 03:00:00,3
48091,1001039,2017-05-11 00:00:00,4,0.0,,2017-05-11 04:00:00,3
48092,1001039,2017-05-11 00:00:00,5,0.0,,2017-05-11 05:00:00,3
48093,1001039,2017-05-11 00:00:00,6,0.0,,2017-05-11 06:00:00,3
48094,1001039,2017-05-11 00:00:00,7,0.0,,2017-05-11 07:00:00,3
48095,1001039,2017-05-11 00:00:00,8,0.0,,2017-05-11 08:00:00,3
48096,1001039,2017-05-11 00:00:00,9,0.0,,2017-05-11 09:00:00,3
48097,1001039,2017-05-11 00:00:00,10,0.0,,2017-05-11 10:00:00,3
48098,1001039,2017-05-11 00:00:00,11,0.0,,2017-05-11 11:00:00,3
48099,1001039,2017-05-11 00:00:00,12,0.0,,2017-05-11 12:00:00,3
48100,1001039,2017-05-11 00:00:00,13,0.0,,2017-05-11 13:00:00,3
48101,1001039,2017-05-11 00:00:00,14,0.0,,2017-05-11 14:00:00,3
48102,1001039,2017-05-11 00:00:00,15,0.0,,2017-05-11 15:00:00,3
48103,1001039,2017-05-11 00:00:00,16,0.0,,2017-05-11 16:00:00,3
48104,1001039,2017-05-11 00:00:00,17,0.0,,2017-05-11 17:00:00,3
48105,1001039,2017-05-11 00:00:00,18,0.0,,2017-05-11 18:00:00,3
48106,1001039,2017-05-11 00:00:00,19,0.0,,2017-05-11 19:00:00,3
48107,1001039,2017-05-11 00:00:00,20,0.0,,2017-05-11 20:00:00,3
48108,1001039,2017-05-11 00:00:00,21,0.0,,2017-05-11 21:00:00,3
48109,1001039,2017-05-11 00:00:00,22,0.0,,2017-05-11 22:00:00,3
48110,1001039,2017-05-11 00:00:00,23,0.0,,2017-05-11 23:00:00,3
48111,1001039,2017-05-12 00:00:00,0,0.0,,2017-05-12 00:00:00,4
48112,1001039,2017-05-12 00:00:00,1,0.0,,2017-05-12 01:00:00,4
48113,1001039,2017-05-12 00:00:00,2,0.0,,2017-05-12 02:00:00,4
48114,1001039,2017-05-12 00:00:00,3,0.0,,2017-05-12 03:00:00,4
48115,1001039,2017-05-12 00:00:00,4,0.0,,2017-05-12 04:00:00,4
48116,1001039,2017-05-12 00:00:00,5,0.0,,2017-05-12 05:00:00,4
48117,1001039,2017-05-12 00:00:00,6,0.0,,2017-05-12 06:00:00,4
48118,1001039,2017-05-12 00:00:00,7,0.0,,2017-05-12 07:00:00,4
48119,1001039,2017-05-12 00:00:00,8,0.0,,2017-05-12 08:00:00,4
48120,1001039,2017-05-12 00:00:00,9,0.0,,2017-05-12 09:00:00,4
48121,1001039,2017-05-12 00:00:00,10,0.0,,2017-05-12 10:00:00,4
48122,1001039,2017-05-12 00:00:00,11,0.0,,2017-05-12 11:00:00,4
48123,1001039,2017-05-12 00:00:00,12,0.0,,2017-05-12 12:00:00,4
48124,1001039,2017-05-12 00:00:00,13,0.0,,2017-05-12 13:00:00,4
48125,1001039,2017-05-12 00:00:00,14,0.0,,2017-05-12 14:00:00,4
48126,1001039,2017-05-12 00:00:00,15,0.0,,2017-05-12 15:00:00,4
48127,1001039,2017-05-12 00:00:00,16,0.0,,2017-05-12 16:00:00,4
48128,1001039,2017-05-12 00:00:00,17,0.0,,2017-05-12 17:00:00,4
48129,1001039,2017-05-12 00:00:00,18,0.0,,2017-05-12 18:00:00,4
48130,1001039,2017-05-12 00:00:00,19,0.0,,2017-05-12 19:00:00,4
48131,1001039,2017-05-12 00:00:00,20,0.0,,2017-05-12 20:00:00,4
48132,1001039,2017-05-12 00:00:00,21,0.0,,2017-05-12 21:00:00,4
48133,1001039,2017-05-12 00:00:00,22,0.0,,2017-05-12 22:00:00,4
48134,1001039,2017-05-12 00:00:00,23,0.0,,2017-05-12 23:00:00,4
48135,1001039,2017-05-13 00:00:00,0,0.0,,2017-05-13 00:00:00,5
48136,1001039,2017-05-13 00:00:00,1,0.0,,2017-05-13 01:00:00,5
48137,1001039,2017-05-13 00:00:00,2,0.0,,2017-05-13 02:00:00,5
48138,1001039,2017-05-13 00:00:00,3,0.0,,2017-05-13 03:00:00,5
48139,1001039,2017-05-13 00:00:00,4,0.0,,2017-05-13 04:00:00,5
48140,1001039,2017-05-13 00:00:00,5,0.0,,2017-05-13 05:00:00,5
48141,1001039,2017-05-13 00:00:00,6,0.0,,2017-05-13 06:00:00,5
48142,1001039,2017-05-13 00:00:00,7,0.0,,2017-05-13 07:00:00,5
48143,1001039,2017-05-13 00:00:00,8,0.0,,2017-05-13 08:00:00,5
48144,1001039,2017-05-13 00:00:00,9,0.0,,2017-05-13 09:00:00,5
48145,1001039,2017-05-13 00:00:00,10,0.0,,2017-05-13 10:00:00,5
48146,1001039,2017-05-13 00:00:00,11,0.0,,2017-05-13 11:00:00,5
48147,1001039,2017-05-13 00:00:00,12,0.0,,2017-05-13 12:00:00,5
48148,1001039,2017-05-13 00:00:00,13,0.0,,2017-05-13 13:00:00,5
48149,1001039,2017-05-13 00:00:00,14,0.0,,2017-05-13 14:00:00,5
48150,1001039,2017-05-13 00:00:00,15,0.0,,2017-05-13 15:00:00,5
48151,1001039,2017-05-13 00:00:00,16,0.0,,2017-05-13 16:00:00,5
48152,1001039,2017-05-13 00:00:00,17,0.0,,2017-05-13 17:00:00,5
48153,1001039,2017-05-13 00:00:00,18,0.0,,2017-05-13 18:00:00,5
48154,1001039,2017-05-13 00:00:00,19,0.0,,2017-05-13 19:00:00,5
48155,1001039,2017-05-13 00:00:00,20,0.0,,2017-05-13 20:00:00,5
48156,1001039,2017-05-13 00:00:00,21,0.0,,2017-05-13 21:00:00,5
48157,1001039,2017-05-13 00:00:00,22,0.0,,2017-05-13 22:00:00,5
48158,1001039,2017-05-13 00:00:00,23,0.0,,2017-05-13 23:00:00,5
48159,1001039,2017-05-14 00:00:00,0,0.0,,2017-05-14 00:00:00,6
48160,1001039,2017-05-14 00:00:00,1,0.0,,2017-05-14 01:00:00,6
48161,1001039,2017-05-14 00:00:00,2,0.0,,2017-05-14 02:00:00,6
48162,1001039,2017-05-14 00:00:00,3,0.0,,2017-05-14 03:00:00,6
48163,1001039,2017-05-14 00:00:00,4,0.0,,2017-05-14 04:00:00,6
48164,1001039,2017-05-14 00:00:00,5,0.0,,2017-05-14 05:00:00,6
48165,1001039,2017-05-14 00:00:00,6,0.0,,2017-05-14 06:00:00,6
48166,1001039,2017-05-14 00:00:00,7,0.0,,2017-05-14 07:00:00,6
48167,1001039,2017-05-14 00:00:00,8,0.0,,2017-05-14 08:00:00,6
48168,1001039,2017-05-14 00:00:00,9,0.0,,2017-05-14 09:00:00,6
48169,1001039,2017-05-14 00:00:00,10,0.0,,2017-05-14 10:00:00,6
48170,1001039,2017-05-14 00:00:00,11,0.0,,2017-05-14 11:00:00,6
48171,1001039,2017-05-14 00:00:00,12,0.0,,2017-05-14 12:00:00,6
48172,1001039,2017-05-14 00:00:00,13,0.0,,2017-05-14 13:00:00,6
48173,1001039,2017-05-14 00:00:00,14,0.0,,2017-05-14 14:00:00,6
48174,1001039,2017-05-14 00:00:00,15,0.0,,2017-05-14 15:00:00,6
48175,1001039,2017-05-14 00:00:00,16,0.0,,2017-05-14 16:00:00,6
48176,1001039,2017-05-14 00:00:00,17,0.0,,2017-05-14 17:00:00,6
48177,1001039,2017-05-14 00:00:00,18,0.0,,2017-05-14 18:00:00,6
48178,1001039,2017-05-14 00:00:00,19,0.0,,2017-05-14 19:00:00,6
48179,1001039,2017-05-14 00:00:00,20,0.0,,2017-05-14 20:00:00,6
48180,1001039,2017-05-14 00:00:00,21,0.0,,2017-05-14 21:00:00,6
48181,1001039,2017-05-14 00:00:00,22,0.0,,2017-05-14 22:00:00,6
48182,1001039,2017-05-14 00:00:00,23,0.0,,2017-05-14 23:00:00,6
48183,1001039,2017-05-15 00:00:00,0,0.0,,2017-05-15 00:00:00,0
48184,1001039,2017-05-15 00:00:00,1,0.0,,2017-05-15 01:00:00,0
48185,1001039,2017-05-15 00:00:00,2,0.0,,2017-05-15 02:00:00,0
48186,1001039,2017-05-15 00:00:00,3,0.0,,2017-05-15 03:00:00,0
48187,1001039,2017-05-15 00:00:00,4,0.0,,2017-05-15 04:00:00,0
48188,1001039,2017-05-15 00:00:00,5,0.0,,2017-05-15 05:00:00,0
48189,1001039,2017-05-15 00:00:00,6,0.0,,2017-05-15 06:00:00,0
48190,1001039,2017-05-15 00:00:00,7,0.0,,2017-05-15 07:00:00,0
48191,1001039,2017-05-15 00:00:00,8,0.0,,2017-05-15 08:00:00,0
48192,1001039,2017-05-15 00:00:00,9,0.0,,2017-05-15 09:00:00,0
48193,1001039,2017-05-15 00:00:00,10,0.0,,2017-05-15 10:00:00,0
48194,1001039,2017-05-15 00:00:00,11,0.0,,2017-05-15 11:00:00,0
48195,1001039,2017-05-15 00:00:00,12,0.0,,2017-05-15 12:00:00,0
48196,1001039,2017-05-15 00:00:00,13,0.0,,2017-05-15 13:00:00,0
48197,1001039,2017-05-15 00:00:00,14,0.0,,2017-05-15 14:00:00,0
48198,1001039,2017-05-15 00:00:00,15,0.0,,2017-05-15 15:00:00,0
48199,1001039,2017-05-15 00:00:00,16,0.0,,2017-05-15 16:00:00,0
48200,1001039,2017-05-15 00:00:00,17,0.0,,2017-05-15 17:00:00,0
48201,1001039,2017-05-15 00:00:00,18,0.0,,2017-05-15 18:00:00,0
48202,1001039,2017-05-15 00:00:00,19,0.0,,2017-05-15 19:00:00,0
48203,1001039,2017-05-15 00:00:00,20,0.0,,2017-05-15 20:00:00,0
48204,1001039,2017-05-15 00:00:00,21,0.0,,2017-05-15 21:00:00,0
48205,1001039,2017-05-15 00:00:00,22,0.0,,2017-05-15 22:00:00,0
48206,1001039,2017-05-15 00:00:00,23,0.0,,2017-05-15 23:00:00,0
48207,1001039,2017-05-16 00:00:00,0,0.0,PHYS. PERF. TEST,2017-05-16 00:00:00,1
48208,1001039,2017-05-16 00:00:00,1,0.0,PHYS. PERF. TEST,2017-05-16 01:00:00,1
48209,1001039,2017-05-16 00:00:00,2,0.0,PHYS. PERF. TEST,2017-05-16 02:00:00,1
48210,1001039,2017-05-16 00:00:00,3,0.0,PHYS. PERF. TEST,2017-05-16 03:00:00,1
48211,1001039,2017-05-16 00:00:00,4,0.0,PHYS. PERF. TEST,2017-05-16 04:00:00,1
48212,1001039,2017-05-16 00:00:00,5,0.0,PHYS. PERF. TEST,2017-05-16 05:00:00,1
48213,1001039,2017-05-16 00:00:00,6,0.0,PHYS. PERF. TEST,2017-05-16 06:00:00,1
48214,1001039,2017-05-16 00:00:00,7,0.0,PHYS. PERF. TEST,2017-05-16 07:00:00,1
48215,1001039,2017-05-16 00:00:00,8,0.0,PHYS. PERF. TEST,2017-05-16 08:00:00,1
48216,1001039,2017-05-16 00:00:00,9,0.6,PHYS. PERF. TEST,2017-05-16 09:00:00,1
48217,1001039,2017-05-16 00:00:00,10,0.716666666666667,PHYS. PERF. TEST,2017-05-16 10:00:00,1
48218,1001039,2017-05-16 00:00:00,11,,PHYS. PERF. TEST,2017-05-16 11:00:00,1
48219,1001039,2017-05-16 00:00:00,12,,PHYS. PERF. TEST,2017-05-16 12:00:00,1
48220,1001039,2017-05-16 00:00:00,13,0.1,PHYS. PERF. TEST,2017-05-16 13:00:00,1
48221,1001039,2017-05-16 00:00:00,14,0.0,PHYS. PERF. TEST,2017-05-16 14:00:00,1
48222,1001039,2017-05-16 00:00:00,15,0.0,PHYS. PERF. TEST,2017-05-16 15:00:00,1
48223,1001039,2017-05-16 00:00:00,16,0.25,PHYS. PERF. TEST,2017-05-16 16:00:00,1
48224,1001039,2017-05-16 00:00:00,17,0.0,PHYS. PERF. TEST,2017-05-16 17:00:00,1
48225,1001039,2017-05-16 00:00:00,18,0.0,PHYS. PERF. TEST,2017-05-16 18:00:00,1
48226,1001039,2017-05-16 00:00:00,19,0.0166666666666667,PHYS. PERF. TEST,2017-05-16 19:00:00,1
48227,1001039,2017-05-16 00:00:00,20,0.0333333333333333,PHYS. PERF. TEST,2017-05-16 20:00:00,1
48228,1001039,2017-05-16 00:00:00,21,0.0,PHYS. PERF. TEST,2017-05-16 21:00:00,1
48229,1001039,2017-05-16 00:00:00,22,0.0,PHYS. PERF. TEST,2017-05-16 22:00:00,1
48230,1001039,2017-05-16 00:00:00,23,0.0,PHYS. PERF. TEST,2017-05-16 23:00:00,1
48231,1001039,2017-05-17 00:00:00,0,0.0,,2017-05-17 00:00:00,2
48232,1001039,2017-05-17 00:00:00,1,0.0,,2017-05-17 01:00:00,2
48233,1001039,2017-05-17 00:00:00,2,0.0,,2017-05-17 02:00:00,2
48234,1001039,2017-05-17 00:00:00,3,0.0,,2017-05-17 03:00:00,2
48235,1001039,2017-05-17 00:00:00,4,0.0,,2017-05-17 04:00:00,2
48236,1001039,2017-05-17 00:00:00,5,0.0,,2017-05-17 05:00:00,2
48237,1001039,2017-05-17 00:00:00,6,0.0,,2017-05-17 06:00:00,2
48238,1001039,2017-05-17 00:00:00,7,0.0333333333333333,,2017-05-17 07:00:00,2
48239,1001039,2017-05-17 00:00:00,8,1.0,,2017-05-17 08:00:00,2
48240,1001039,2017-05-17 00:00:00,9,1.0,,2017-05-17 09:00:00,2
48241,1001039,2017-05-17 00:00:00,10,1.0,,2017-05-17 10:00:00,2
48242,1001039,2017-05-17 00:00:00,11,1.0,,2017-05-17 11:00:00,2
48243,1001039,2017-05-17 00:00:00,12,1.0,,2017-05-17 12:00:00,2
48244,1001039,2017-05-17 00:00:00,13,1.0,,2017-05-17 13:00:00,2
48245,1001039,2017-05-17 00:00:00,14,1.0,,2017-05-17 14:00:00,2
48246,1001039,2017-05-17 00:00:00,15,1.0,,2017-05-17 15:00:00,2
48247,1001039,2017-05-17 00:00:00,16,1.0,,2017-05-17 16:00:00,2
48248,1001039,2017-05-17 00:00:00,17,1.0,,2017-05-17 17:00:00,2
48249,1001039,2017-05-17 00:00:00,18,1.0,,2017-05-17 18:00:00,2
48250,1001039,2017-05-17 00:00:00,19,1.0,,2017-05-17 19:00:00,2
48251,1001039,2017-05-17 00:00:00,20,1.0,,2017-05-17 20:00:00,2
48252,1001039,2017-05-17 00:00:00,21,1.0,,2017-05-17 21:00:00,2
48253,1001039,2017-05-17 00:00:00,22,1.0,,2017-05-17 22:00:00,2
48254,1001039,2017-05-17 00:00:00,23,1.0,,2017-05-17 23:00:00,2
48255,1001039,2017-05-18 00:00:00,0,0.883333333333333,,2017-05-18 00:00:00,3
48256,1001039,2017-05-18 00:00:00,1,1.0,,2017-05-18 01:00:00,3
48257,1001039,2017-05-18 00:00:00,2,1.0,,2017-05-18 02:00:00,3
48258,1001039,2017-05-18 00:00:00,3,1.0,,2017-05-18 03:00:00,3
48259,1001039,2017-05-18 00:00:00,4,0.9,,2017-05-18 04:00:00,3
48260,1001039,2017-05-18 00:00:00,5,1.0,,2017-05-18 05:00:00,3
48261,1001039,2017-05-18 00:00:00,6,1.0,,2017-05-18 06:00:00,3
48262,1001039,2017-05-18 00:00:00,7,1.0,,2017-05-18 07:00:00,3
48263,1001039,2017-05-18 00:00:00,8,1.0,,2017-05-18 08:00:00,3
48264,1001039,2017-05-18 00:00:00,9,0.21666666666666698,,2017-05-18 09:00:00,3
48265,1001039,2017-05-18 00:00:00,10,0.716666666666667,,2017-05-18 10:00:00,3
48266,1001039,2017-05-18 00:00:00,11,0.983333333333333,,2017-05-18 11:00:00,3
48267,1001039,2017-05-18 00:00:00,12,1.0,,2017-05-18 12:00:00,3
48268,1001039,2017-05-18 00:00:00,13,1.0,,2017-05-18 13:00:00,3
48269,1001039,2017-05-18 00:00:00,14,1.0,,2017-05-18 14:00:00,3
48270,1001039,2017-05-18 00:00:00,15,1.0,,2017-05-18 15:00:00,3
48271,1001039,2017-05-18 00:00:00,16,0.966666666666667,,2017-05-18 16:00:00,3
48272,1001039,2017-05-18 00:00:00,17,0.983333333333333,,2017-05-18 17:00:00,3
48273,1001039,2017-05-18 00:00:00,18,1.0,,2017-05-18 18:00:00,3
48274,1001039,2017-05-18 00:00:00,19,1.0,,2017-05-18 19:00:00,3
48275,1001039,2017-05-18 00:00:00,20,1.0,,2017-05-18 20:00:00,3
48276,1001039,2017-05-18 00:00:00,21,1.0,,2017-05-18 21:00:00,3
48277,1001039,2017-05-18 00:00:00,22,1.0,,2017-05-18 22:00:00,3
48278,1001039,2017-05-18 00:00:00,23,1.0,,2017-05-18 23:00:00,3
48279,1001039,2017-05-19 00:00:00,0,1.0,,2017-05-19 00:00:00,4
48280,1001039,2017-05-19 00:00:00,1,1.0,,2017-05-19 01:00:00,4
48281,1001039,2017-05-19 00:00:00,2,1.0,,2017-05-19 02:00:00,4
48282,1001039,2017-05-19 00:00:00,3,1.0,,2017-05-19 03:00:00,4
48283,1001039,2017-05-19 00:00:00,4,1.0,,2017-05-19 04:00:00,4
48284,1001039,2017-05-19 00:00:00,5,1.0,,2017-05-19 05:00:00,4
48285,1001039,2017-05-19 00:00:00,6,1.0,,2017-05-19 06:00:00,4
48286,1001039,2017-05-19 00:00:00,7,1.0,,2017-05-19 07:00:00,4
48287,1001039,2017-05-19 00:00:00,8,,,2017-05-19 08:00:00,4
48288,1001039,2017-05-19 00:00:00,9,1.0,,2017-05-19 09:00:00,4
48289,1001039,2017-05-19 00:00:00,10,1.0,,2017-05-19 10:00:00,4
48290,1001039,2017-05-19 00:00:00,11,0.8,,2017-05-19 11:00:00,4
48291,1001039,2017-05-19 00:00:00,12,1.0,,2017-05-19 12:00:00,4
48292,1001039,2017-05-19 00:00:00,13,1.0,,2017-05-19 13:00:00,4
48293,1001039,2017-05-19 00:00:00,14,1.0,,2017-05-19 14:00:00,4
48294,1001039,2017-05-19 00:00:00,15,1.0,,2017-05-19 15:00:00,4
48295,1001039,2017-05-19 00:00:00,16,0.983333333333333,,2017-05-19 16:00:00,4
48296,1001039,2017-05-19 00:00:00,17,1.0,,2017-05-19 17:00:00,4
48297,1001039,2017-05-19 00:00:00,18,0.966666666666667,,2017-05-19 18:00:00,4
48298,1001039,2017-05-19 00:00:00,19,1.0,,2017-05-19 19:00:00,4
48299,1001039,2017-05-19 00:00:00,20,1.0,,2017-05-19 20:00:00,4
48300,1001039,2017-05-19 00:00:00,21,1.0,,2017-05-19 21:00:00,4
48301,1001039,2017-05-19 00:00:00,22,1.0,,2017-05-19 22:00:00,4
48302,1001039,2017-05-19 00:00:00,23,1.0,,2017-05-19 23:00:00,4
48303,1001039,2017-05-20 00:00:00,0,1.0,,2017-05-20 00:00:00,5
48304,1001039,2017-05-20 00:00:00,1,1.0,,2017-05-20 01:00:00,5
48305,1001039,2017-05-20 00:00:00,2,1.0,,2017-05-20 02:00:00,5
48306,1001039,2017-05-20 00:00:00,3,1.0,,2017-05-20 03:00:00,5
48307,1001039,2017-05-20 00:00:00,4,1.0,,2017-05-20 04:00:00,5
48308,1001039,2017-05-20 00:00:00,5,1.0,,2017-05-20 05:00:00,5
48309,1001039,2017-05-20 00:00:00,6,1.0,,2017-05-20 06:00:00,5
48310,1001039,2017-05-20 00:00:00,7,1.0,,2017-05-20 07:00:00,5
48311,1001039,2017-05-20 00:00:00,8,1.0,,2017-05-20 08:00:00,5
48312,1001039,2017-05-20 00:00:00,9,1.0,,2017-05-20 09:00:00,5
48313,1001039,2017-05-20 00:00:00,10,1.0,,2017-05-20 10:00:00,5
48314,1001039,2017-05-20 00:00:00,11,1.0,,2017-05-20 11:00:00,5
48315,1001039,2017-05-20 00:00:00,12,1.0,,2017-05-20 12:00:00,5
48316,1001039,2017-05-20 00:00:00,13,1.0,,2017-05-20 13:00:00,5
48317,1001039,2017-05-20 00:00:00,14,0.95,,2017-05-20 14:00:00,5
48318,1001039,2017-05-20 00:00:00,15,0.4,,2017-05-20 15:00:00,5
48319,1001039,2017-05-20 00:00:00,16,1.0,,2017-05-20 16:00:00,5
48320,1001039,2017-05-20 00:00:00,17,1.0,,2017-05-20 17:00:00,5
48321,1001039,2017-05-20 00:00:00,18,1.0,,2017-05-20 18:00:00,5
48322,1001039,2017-05-20 00:00:00,19,1.0,,2017-05-20 19:00:00,5
48323,1001039,2017-05-20 00:00:00,20,1.0,,2017-05-20 20:00:00,5
48324,1001039,2017-05-20 00:00:00,21,1.0,,2017-05-20 21:00:00,5
48325,1001039,2017-05-20 00:00:00,22,1.0,,2017-05-20 22:00:00,5
48326,1001039,2017-05-20 00:00:00,23,1.0,,2017-05-20 23:00:00,5
48327,1001039,2017-05-21 00:00:00,0,,,2017-05-21 00:00:00,6
48328,1001039,2017-05-21 00:00:00,1,,,2017-05-21 01:00:00,6
48329,1001039,2017-05-21 00:00:00,2,1.0,,2017-05-21 02:00:00,6
48330,1001039,2017-05-21 00:00:00,3,,,2017-05-21 03:00:00,6
48331,1001039,2017-05-21 00:00:00,4,,,2017-05-21 04:00:00,6
48332,1001039,2017-05-21 00:00:00,5,,,2017-05-21 05:00:00,6
48333,1001039,2017-05-21 00:00:00,6,0.983333333333333,,2017-05-21 06:00:00,6
48334,1001039,2017-05-21 00:00:00,7,,,2017-05-21 07:00:00,6
48335,1001039,2017-05-21 00:00:00,8,1.0,,2017-05-21 08:00:00,6
48336,1001039,2017-05-21 00:00:00,9,1.0,,2017-05-21 09:00:00,6
48337,1001039,2017-05-21 00:00:00,10,1.0,,2017-05-21 10:00:00,6
48338,1001039,2017-05-21 00:00:00,11,1.0,,2017-05-21 11:00:00,6
48339,1001039,2017-05-21 00:00:00,12,1.0,,2017-05-21 12:00:00,6
48340,1001039,2017-05-21 00:00:00,13,1.0,,2017-05-21 13:00:00,6
48341,1001039,2017-05-21 00:00:00,14,0.966666666666667,,2017-05-21 14:00:00,6
48342,1001039,2017-05-21 00:00:00,15,1.0,,2017-05-21 15:00:00,6
48343,1001039,2017-05-21 00:00:00,16,0.916666666666667,,2017-05-21 16:00:00,6
48344,1001039,2017-05-21 00:00:00,17,1.0,,2017-05-21 17:00:00,6
48345,1001039,2017-05-21 00:00:00,18,1.0,,2017-05-21 18:00:00,6
48346,1001039,2017-05-21 00:00:00,19,1.0,,2017-05-21 19:00:00,6
48347,1001039,2017-05-21 00:00:00,20,0.983333333333333,,2017-05-21 20:00:00,6
48348,1001039,2017-05-21 00:00:00,21,1.0,,2017-05-21 21:00:00,6
48349,1001039,2017-05-21 00:00:00,22,1.0,,2017-05-21 22:00:00,6
48350,1001039,2017-05-21 00:00:00,23,0.966666666666667,,2017-05-21 23:00:00,6
48351,1001039,2017-05-22 00:00:00,0,1.0,,2017-05-22 00:00:00,0
48352,1001039,2017-05-22 00:00:00,1,0.833333333333333,,2017-05-22 01:00:00,0
48353,1001039,2017-05-22 00:00:00,2,1.0,,2017-05-22 02:00:00,0
48354,1001039,2017-05-22 00:00:00,3,1.0,,2017-05-22 03:00:00,0
48355,1001039,2017-05-22 00:00:00,4,1.0,,2017-05-22 04:00:00,0
48356,1001039,2017-05-22 00:00:00,5,1.0,,2017-05-22 05:00:00,0
48357,1001039,2017-05-22 00:00:00,6,1.0,,2017-05-22 06:00:00,0
48358,1001039,2017-05-22 00:00:00,7,0.933333333333333,,2017-05-22 07:00:00,0
48359,1001039,2017-05-22 00:00:00,8,1.0,,2017-05-22 08:00:00,0
48360,1001039,2017-05-22 00:00:00,9,1.0,,2017-05-22 09:00:00,0
48361,1001039,2017-05-22 00:00:00,10,1.0,,2017-05-22 10:00:00,0
48362,1001039,2017-05-22 00:00:00,11,1.0,,2017-05-22 11:00:00,0
48363,1001039,2017-05-22 00:00:00,12,1.0,,2017-05-22 12:00:00,0
48364,1001039,2017-05-22 00:00:00,13,0.9,,2017-05-22 13:00:00,0
48365,1001039,2017-05-22 00:00:00,14,1.0,,2017-05-22 14:00:00,0
48366,1001039,2017-05-22 00:00:00,15,1.0,,2017-05-22 15:00:00,0
48367,1001039,2017-05-22 00:00:00,16,1.0,,2017-05-22 16:00:00,0
48368,1001039,2017-05-22 00:00:00,17,1.0,,2017-05-22 17:00:00,0
48369,1001039,2017-05-22 00:00:00,18,1.0,,2017-05-22 18:00:00,0
48370,1001039,2017-05-22 00:00:00,19,1.0,,2017-05-22 19:00:00,0
48371,1001039,2017-05-22 00:00:00,20,1.0,,2017-05-22 20:00:00,0
48372,1001039,2017-05-22 00:00:00,21,1.0,,2017-05-22 21:00:00,0
48373,1001039,2017-05-22 00:00:00,22,1.0,,2017-05-22 22:00:00,0
48374,1001039,2017-05-22 00:00:00,23,1.0,,2017-05-22 23:00:00,0
48375,1001039,2017-05-23 00:00:00,0,1.0,V4,2017-05-23 00:00:00,1
48376,1001039,2017-05-23 00:00:00,1,1.0,V4,2017-05-23 01:00:00,1
48377,1001039,2017-05-23 00:00:00,2,1.0,V4,2017-05-23 02:00:00,1
48378,1001039,2017-05-23 00:00:00,3,1.0,V4,2017-05-23 03:00:00,1
48379,1001039,2017-05-23 00:00:00,4,1.0,V4,2017-05-23 04:00:00,1
48380,1001039,2017-05-23 00:00:00,5,1.0,V4,2017-05-23 05:00:00,1
48381,1001039,2017-05-23 00:00:00,6,1.0,V4,2017-05-23 06:00:00,1
48382,1001039,2017-05-23 00:00:00,7,0.983333333333333,V4,2017-05-23 07:00:00,1
48383,1001039,2017-05-23 00:00:00,8,0.966666666666667,V4,2017-05-23 08:00:00,1
48384,1001039,2017-05-23 00:00:00,9,1.0,V4,2017-05-23 09:00:00,1
