,subjid,date,hour,adherence,visit,datetime,weekday
54320,1008009,2017-01-08 00:00:00,1,0.0,,2017-01-08 01:00:00,6
54321,1008009,2017-01-08 00:00:00,2,0.116666666666667,,2017-01-08 02:00:00,6
54322,1008009,2017-01-08 00:00:00,3,0.0,,2017-01-08 03:00:00,6
54323,1008009,2017-01-08 00:00:00,4,0.0,,2017-01-08 04:00:00,6
54324,1008009,2017-01-08 00:00:00,5,0.0,,2017-01-08 05:00:00,6
54325,1008009,2017-01-08 00:00:00,6,0.0,,2017-01-08 06:00:00,6
54326,1008009,2017-01-08 00:00:00,7,0.0,,2017-01-08 07:00:00,6
54327,1008009,2017-01-08 00:00:00,8,0.0,,2017-01-08 08:00:00,6
54328,1008009,2017-01-08 00:00:00,9,0.35,,2017-01-08 09:00:00,6
54329,1008009,2017-01-08 00:00:00,10,1.0,,2017-01-08 10:00:00,6
54330,1008009,2017-01-08 00:00:00,11,1.0,,2017-01-08 11:00:00,6
54331,1008009,2017-01-08 00:00:00,12,1.0,,2017-01-08 12:00:00,6
54332,1008009,2017-01-08 00:00:00,13,1.0,,2017-01-08 13:00:00,6
54333,1008009,2017-01-08 00:00:00,14,1.0,,2017-01-08 14:00:00,6
54334,1008009,2017-01-08 00:00:00,15,1.0,,2017-01-08 15:00:00,6
54335,1008009,2017-01-08 00:00:00,16,1.0,,2017-01-08 16:00:00,6
54336,1008009,2017-01-08 00:00:00,17,1.0,,2017-01-08 17:00:00,6
54337,1008009,2017-01-08 00:00:00,18,1.0,,2017-01-08 18:00:00,6
54338,1008009,2017-01-08 00:00:00,19,0.966666666666667,,2017-01-08 19:00:00,6
54339,1008009,2017-01-08 00:00:00,20,1.0,,2017-01-08 20:00:00,6
54340,1008009,2017-01-08 00:00:00,21,1.0,,2017-01-08 21:00:00,6
54341,1008009,2017-01-08 00:00:00,22,0.7,,2017-01-08 22:00:00,6
54342,1008009,2017-01-08 00:00:00,23,0.0,,2017-01-08 23:00:00,6
54343,1008009,2017-01-09 00:00:00,0,0.0,,2017-01-09 00:00:00,0
54344,1008009,2017-01-09 00:00:00,1,0.0,,2017-01-09 01:00:00,0
54345,1008009,2017-01-09 00:00:00,2,0.0,,2017-01-09 02:00:00,0
54346,1008009,2017-01-09 00:00:00,3,0.0,,2017-01-09 03:00:00,0
54347,1008009,2017-01-09 00:00:00,4,0.0,,2017-01-09 04:00:00,0
54348,1008009,2017-01-09 00:00:00,5,0.0,,2017-01-09 05:00:00,0
54349,1008009,2017-01-09 00:00:00,6,0.0,,2017-01-09 06:00:00,0
54350,1008009,2017-01-09 00:00:00,7,0.0,,2017-01-09 07:00:00,0
54351,1008009,2017-01-09 00:00:00,8,0.0,,2017-01-09 08:00:00,0
54352,1008009,2017-01-09 00:00:00,9,0.616666666666667,,2017-01-09 09:00:00,0
54353,1008009,2017-01-09 00:00:00,10,1.0,,2017-01-09 10:00:00,0
54354,1008009,2017-01-09 00:00:00,11,1.0,,2017-01-09 11:00:00,0
54355,1008009,2017-01-09 00:00:00,12,1.0,,2017-01-09 12:00:00,0
54356,1008009,2017-01-09 00:00:00,13,1.0,,2017-01-09 13:00:00,0
54357,1008009,2017-01-09 00:00:00,14,1.0,,2017-01-09 14:00:00,0
54358,1008009,2017-01-09 00:00:00,15,1.0,,2017-01-09 15:00:00,0
54359,1008009,2017-01-09 00:00:00,16,1.0,,2017-01-09 16:00:00,0
54360,1008009,2017-01-09 00:00:00,17,1.0,,2017-01-09 17:00:00,0
54361,1008009,2017-01-09 00:00:00,18,1.0,,2017-01-09 18:00:00,0
54362,1008009,2017-01-09 00:00:00,19,1.0,,2017-01-09 19:00:00,0
54363,1008009,2017-01-09 00:00:00,20,0.983333333333333,,2017-01-09 20:00:00,0
54364,1008009,2017-01-09 00:00:00,21,1.0,,2017-01-09 21:00:00,0
54365,1008009,2017-01-09 00:00:00,22,1.0,,2017-01-09 22:00:00,0
54366,1008009,2017-01-09 00:00:00,23,1.0,,2017-01-09 23:00:00,0
54367,1008009,2017-01-10 00:00:00,0,0.516666666666667,,2017-01-10 00:00:00,1
54368,1008009,2017-01-10 00:00:00,1,0.0,,2017-01-10 01:00:00,1
54369,1008009,2017-01-10 00:00:00,2,0.0833333333333333,,2017-01-10 02:00:00,1
54370,1008009,2017-01-10 00:00:00,3,0.23333333333333303,,2017-01-10 03:00:00,1
54371,1008009,2017-01-10 00:00:00,4,0.0,,2017-01-10 04:00:00,1
54372,1008009,2017-01-10 00:00:00,5,0.0,,2017-01-10 05:00:00,1
54373,1008009,2017-01-10 00:00:00,6,0.0166666666666667,,2017-01-10 06:00:00,1
54374,1008009,2017-01-10 00:00:00,7,0.0,,2017-01-10 07:00:00,1
54375,1008009,2017-01-10 00:00:00,8,0.0,,2017-01-10 08:00:00,1
54376,1008009,2017-01-10 00:00:00,9,0.2,,2017-01-10 09:00:00,1
54377,1008009,2017-01-10 00:00:00,10,1.0,,2017-01-10 10:00:00,1
54378,1008009,2017-01-10 00:00:00,11,1.0,,2017-01-10 11:00:00,1
54379,1008009,2017-01-10 00:00:00,12,1.0,,2017-01-10 12:00:00,1
54380,1008009,2017-01-10 00:00:00,13,1.0,,2017-01-10 13:00:00,1
54381,1008009,2017-01-10 00:00:00,14,1.0,,2017-01-10 14:00:00,1
54382,1008009,2017-01-10 00:00:00,15,1.0,,2017-01-10 15:00:00,1
54383,1008009,2017-01-10 00:00:00,16,1.0,,2017-01-10 16:00:00,1
54384,1008009,2017-01-10 00:00:00,17,1.0,,2017-01-10 17:00:00,1
54385,1008009,2017-01-10 00:00:00,18,1.0,,2017-01-10 18:00:00,1
54386,1008009,2017-01-10 00:00:00,19,1.0,,2017-01-10 19:00:00,1
54387,1008009,2017-01-10 00:00:00,20,1.0,,2017-01-10 20:00:00,1
54388,1008009,2017-01-10 00:00:00,21,1.0,,2017-01-10 21:00:00,1
54389,1008009,2017-01-10 00:00:00,22,1.0,,2017-01-10 22:00:00,1
54390,1008009,2017-01-10 00:00:00,23,1.0,,2017-01-10 23:00:00,1
54391,1008009,2017-01-11 00:00:00,0,0.966666666666667,,2017-01-11 00:00:00,2
54392,1008009,2017-01-11 00:00:00,1,1.0,,2017-01-11 01:00:00,2
54393,1008009,2017-01-11 00:00:00,2,0.46666666666666706,,2017-01-11 02:00:00,2
54394,1008009,2017-01-11 00:00:00,3,0.0,,2017-01-11 03:00:00,2
54395,1008009,2017-01-11 00:00:00,4,0.0,,2017-01-11 04:00:00,2
54396,1008009,2017-01-11 00:00:00,5,0.0,,2017-01-11 05:00:00,2
54397,1008009,2017-01-11 00:00:00,6,0.0,,2017-01-11 06:00:00,2
54398,1008009,2017-01-11 00:00:00,7,0.0,,2017-01-11 07:00:00,2
54399,1008009,2017-01-11 00:00:00,8,0.0,,2017-01-11 08:00:00,2
54400,1008009,2017-01-11 00:00:00,9,0.0,,2017-01-11 09:00:00,2
54401,1008009,2017-01-11 00:00:00,10,0.916666666666667,,2017-01-11 10:00:00,2
54402,1008009,2017-01-11 00:00:00,11,1.0,,2017-01-11 11:00:00,2
54403,1008009,2017-01-11 00:00:00,12,1.0,,2017-01-11 12:00:00,2
54404,1008009,2017-01-11 00:00:00,13,1.0,,2017-01-11 13:00:00,2
54405,1008009,2017-01-11 00:00:00,14,1.0,,2017-01-11 14:00:00,2
54406,1008009,2017-01-11 00:00:00,15,1.0,,2017-01-11 15:00:00,2
54407,1008009,2017-01-11 00:00:00,16,1.0,,2017-01-11 16:00:00,2
54408,1008009,2017-01-11 00:00:00,17,1.0,,2017-01-11 17:00:00,2
54409,1008009,2017-01-11 00:00:00,18,1.0,,2017-01-11 18:00:00,2
54410,1008009,2017-01-11 00:00:00,19,1.0,,2017-01-11 19:00:00,2
54411,1008009,2017-01-11 00:00:00,20,0.983333333333333,,2017-01-11 20:00:00,2
54412,1008009,2017-01-11 00:00:00,21,1.0,,2017-01-11 21:00:00,2
54413,1008009,2017-01-11 00:00:00,22,1.0,,2017-01-11 22:00:00,2
54414,1008009,2017-01-11 00:00:00,23,1.0,,2017-01-11 23:00:00,2
54415,1008009,2017-01-12 00:00:00,0,1.0,,2017-01-12 00:00:00,3
54416,1008009,2017-01-12 00:00:00,1,0.816666666666667,,2017-01-12 01:00:00,3
54417,1008009,2017-01-12 00:00:00,2,0.0,,2017-01-12 02:00:00,3
54418,1008009,2017-01-12 00:00:00,3,0.0,,2017-01-12 03:00:00,3
54419,1008009,2017-01-12 00:00:00,4,0.0,,2017-01-12 04:00:00,3
54420,1008009,2017-01-12 00:00:00,5,0.0,,2017-01-12 05:00:00,3
54421,1008009,2017-01-12 00:00:00,6,0.0,,2017-01-12 06:00:00,3
54422,1008009,2017-01-12 00:00:00,7,0.0,,2017-01-12 07:00:00,3
54423,1008009,2017-01-12 00:00:00,8,0.7,,2017-01-12 08:00:00,3
54424,1008009,2017-01-12 00:00:00,9,1.0,,2017-01-12 09:00:00,3
54425,1008009,2017-01-12 00:00:00,10,1.0,,2017-01-12 10:00:00,3
54426,1008009,2017-01-12 00:00:00,11,1.0,,2017-01-12 11:00:00,3
54427,1008009,2017-01-12 00:00:00,12,1.0,,2017-01-12 12:00:00,3
54428,1008009,2017-01-12 00:00:00,13,1.0,,2017-01-12 13:00:00,3
54429,1008009,2017-01-12 00:00:00,14,0.833333333333333,,2017-01-12 14:00:00,3
54430,1008009,2017-01-12 00:00:00,15,1.0,,2017-01-12 15:00:00,3
54431,1008009,2017-01-12 00:00:00,16,1.0,,2017-01-12 16:00:00,3
54432,1008009,2017-01-12 00:00:00,17,1.0,,2017-01-12 17:00:00,3
54433,1008009,2017-01-12 00:00:00,18,1.0,,2017-01-12 18:00:00,3
54434,1008009,2017-01-12 00:00:00,19,0.983333333333333,,2017-01-12 19:00:00,3
54435,1008009,2017-01-12 00:00:00,20,0.95,,2017-01-12 20:00:00,3
54436,1008009,2017-01-12 00:00:00,21,0.933333333333333,,2017-01-12 21:00:00,3
54437,1008009,2017-01-12 00:00:00,22,1.0,,2017-01-12 22:00:00,3
54438,1008009,2017-01-12 00:00:00,23,1.0,,2017-01-12 23:00:00,3
54439,1008009,2017-01-13 00:00:00,0,1.0,,2017-01-13 00:00:00,4
54440,1008009,2017-01-13 00:00:00,1,1.0,,2017-01-13 01:00:00,4
54441,1008009,2017-01-13 00:00:00,2,0.966666666666667,,2017-01-13 02:00:00,4
54442,1008009,2017-01-13 00:00:00,3,0.983333333333333,,2017-01-13 03:00:00,4
54443,1008009,2017-01-13 00:00:00,4,1.0,,2017-01-13 04:00:00,4
54444,1008009,2017-01-13 00:00:00,5,1.0,,2017-01-13 05:00:00,4
54445,1008009,2017-01-13 00:00:00,6,1.0,,2017-01-13 06:00:00,4
54446,1008009,2017-01-13 00:00:00,7,0.916666666666667,,2017-01-13 07:00:00,4
54447,1008009,2017-01-13 00:00:00,8,1.0,,2017-01-13 08:00:00,4
54448,1008009,2017-01-13 00:00:00,9,1.0,,2017-01-13 09:00:00,4
54449,1008009,2017-01-13 00:00:00,10,1.0,,2017-01-13 10:00:00,4
54450,1008009,2017-01-13 00:00:00,11,1.0,,2017-01-13 11:00:00,4
54451,1008009,2017-01-13 00:00:00,12,1.0,,2017-01-13 12:00:00,4
54452,1008009,2017-01-13 00:00:00,13,1.0,,2017-01-13 13:00:00,4
54453,1008009,2017-01-13 00:00:00,14,1.0,,2017-01-13 14:00:00,4
54454,1008009,2017-01-13 00:00:00,15,1.0,,2017-01-13 15:00:00,4
54455,1008009,2017-01-13 00:00:00,16,1.0,,2017-01-13 16:00:00,4
54456,1008009,2017-01-13 00:00:00,17,1.0,,2017-01-13 17:00:00,4
54457,1008009,2017-01-13 00:00:00,18,1.0,,2017-01-13 18:00:00,4
54458,1008009,2017-01-13 00:00:00,19,1.0,,2017-01-13 19:00:00,4
54459,1008009,2017-01-13 00:00:00,20,1.0,,2017-01-13 20:00:00,4
54460,1008009,2017-01-13 00:00:00,21,1.0,,2017-01-13 21:00:00,4
54461,1008009,2017-01-13 00:00:00,22,1.0,,2017-01-13 22:00:00,4
54462,1008009,2017-01-13 00:00:00,23,1.0,,2017-01-13 23:00:00,4
54463,1008009,2017-01-14 00:00:00,0,1.0,,2017-01-14 00:00:00,5
54464,1008009,2017-01-14 00:00:00,1,0.983333333333333,,2017-01-14 01:00:00,5
54465,1008009,2017-01-14 00:00:00,2,1.0,,2017-01-14 02:00:00,5
54466,1008009,2017-01-14 00:00:00,3,0.85,,2017-01-14 03:00:00,5
54467,1008009,2017-01-14 00:00:00,4,0.966666666666667,,2017-01-14 04:00:00,5
54468,1008009,2017-01-14 00:00:00,5,1.0,,2017-01-14 05:00:00,5
54469,1008009,2017-01-14 00:00:00,6,1.0,,2017-01-14 06:00:00,5
54470,1008009,2017-01-14 00:00:00,7,1.0,,2017-01-14 07:00:00,5
54471,1008009,2017-01-14 00:00:00,8,1.0,,2017-01-14 08:00:00,5
54472,1008009,2017-01-14 00:00:00,9,1.0,,2017-01-14 09:00:00,5
54473,1008009,2017-01-14 00:00:00,10,1.0,,2017-01-14 10:00:00,5
54474,1008009,2017-01-14 00:00:00,11,1.0,,2017-01-14 11:00:00,5
54475,1008009,2017-01-14 00:00:00,12,1.0,,2017-01-14 12:00:00,5
54476,1008009,2017-01-14 00:00:00,13,1.0,,2017-01-14 13:00:00,5
54477,1008009,2017-01-14 00:00:00,14,1.0,,2017-01-14 14:00:00,5
54478,1008009,2017-01-14 00:00:00,15,1.0,,2017-01-14 15:00:00,5
54479,1008009,2017-01-14 00:00:00,16,1.0,,2017-01-14 16:00:00,5
54480,1008009,2017-01-14 00:00:00,17,1.0,,2017-01-14 17:00:00,5
54481,1008009,2017-01-14 00:00:00,18,1.0,,2017-01-14 18:00:00,5
54482,1008009,2017-01-14 00:00:00,19,1.0,,2017-01-14 19:00:00,5
54483,1008009,2017-01-14 00:00:00,20,1.0,,2017-01-14 20:00:00,5
54484,1008009,2017-01-14 00:00:00,21,1.0,,2017-01-14 21:00:00,5
54485,1008009,2017-01-14 00:00:00,22,1.0,,2017-01-14 22:00:00,5
54486,1008009,2017-01-14 00:00:00,23,0.966666666666667,,2017-01-14 23:00:00,5
54487,1008009,2017-01-15 00:00:00,0,0.816666666666667,,2017-01-15 00:00:00,6
54488,1008009,2017-01-15 00:00:00,1,0.0666666666666667,,2017-01-15 01:00:00,6
54489,1008009,2017-01-15 00:00:00,2,0.0,,2017-01-15 02:00:00,6
54490,1008009,2017-01-15 00:00:00,3,0.0,,2017-01-15 03:00:00,6
54491,1008009,2017-01-15 00:00:00,4,0.0333333333333333,,2017-01-15 04:00:00,6
54492,1008009,2017-01-15 00:00:00,5,0.0,,2017-01-15 05:00:00,6
54493,1008009,2017-01-15 00:00:00,6,0.0,,2017-01-15 06:00:00,6
54494,1008009,2017-01-15 00:00:00,7,0.0833333333333333,,2017-01-15 07:00:00,6
54495,1008009,2017-01-15 00:00:00,8,0.0,,2017-01-15 08:00:00,6
54496,1008009,2017-01-15 00:00:00,9,0.116666666666667,,2017-01-15 09:00:00,6
54497,1008009,2017-01-15 00:00:00,10,1.0,,2017-01-15 10:00:00,6
54498,1008009,2017-01-15 00:00:00,11,1.0,,2017-01-15 11:00:00,6
54499,1008009,2017-01-15 00:00:00,12,1.0,,2017-01-15 12:00:00,6
54500,1008009,2017-01-15 00:00:00,13,1.0,,2017-01-15 13:00:00,6
54501,1008009,2017-01-15 00:00:00,14,1.0,,2017-01-15 14:00:00,6
54502,1008009,2017-01-15 00:00:00,15,0.95,,2017-01-15 15:00:00,6
54503,1008009,2017-01-15 00:00:00,16,1.0,,2017-01-15 16:00:00,6
54504,1008009,2017-01-15 00:00:00,17,1.0,,2017-01-15 17:00:00,6
54505,1008009,2017-01-15 00:00:00,18,1.0,,2017-01-15 18:00:00,6
54506,1008009,2017-01-15 00:00:00,19,1.0,,2017-01-15 19:00:00,6
54507,1008009,2017-01-15 00:00:00,20,1.0,,2017-01-15 20:00:00,6
54508,1008009,2017-01-15 00:00:00,21,1.0,,2017-01-15 21:00:00,6
54509,1008009,2017-01-15 00:00:00,22,0.933333333333333,,2017-01-15 22:00:00,6
54510,1008009,2017-01-15 00:00:00,23,,,2017-01-15 23:00:00,6
54511,1008009,2017-01-16 00:00:00,0,0.0,,2017-01-16 00:00:00,0
54512,1008009,2017-01-16 00:00:00,1,0.0,,2017-01-16 01:00:00,0
54513,1008009,2017-01-16 00:00:00,2,0.0,,2017-01-16 02:00:00,0
54514,1008009,2017-01-16 00:00:00,3,0.0,,2017-01-16 03:00:00,0
54515,1008009,2017-01-16 00:00:00,4,0.0,,2017-01-16 04:00:00,0
54516,1008009,2017-01-16 00:00:00,5,0.0,,2017-01-16 05:00:00,0
54517,1008009,2017-01-16 00:00:00,6,0.0,,2017-01-16 06:00:00,0
54518,1008009,2017-01-16 00:00:00,7,0.0,,2017-01-16 07:00:00,0
54519,1008009,2017-01-16 00:00:00,8,0.783333333333333,,2017-01-16 08:00:00,0
54520,1008009,2017-01-16 00:00:00,9,1.0,,2017-01-16 09:00:00,0
54521,1008009,2017-01-16 00:00:00,10,1.0,,2017-01-16 10:00:00,0
54522,1008009,2017-01-16 00:00:00,11,0.966666666666667,,2017-01-16 11:00:00,0
54523,1008009,2017-01-16 00:00:00,12,1.0,,2017-01-16 12:00:00,0
54524,1008009,2017-01-16 00:00:00,13,0.55,,2017-01-16 13:00:00,0
54525,1008009,2017-01-16 00:00:00,14,1.0,,2017-01-16 14:00:00,0
54526,1008009,2017-01-16 00:00:00,15,1.0,,2017-01-16 15:00:00,0
54527,1008009,2017-01-16 00:00:00,16,1.0,,2017-01-16 16:00:00,0
54528,1008009,2017-01-16 00:00:00,17,1.0,,2017-01-16 17:00:00,0
54529,1008009,2017-01-16 00:00:00,18,1.0,,2017-01-16 18:00:00,0
54530,1008009,2017-01-16 00:00:00,19,1.0,,2017-01-16 19:00:00,0
54531,1008009,2017-01-16 00:00:00,20,0.95,,2017-01-16 20:00:00,0
54532,1008009,2017-01-16 00:00:00,21,1.0,,2017-01-16 21:00:00,0
54533,1008009,2017-01-16 00:00:00,22,1.0,,2017-01-16 22:00:00,0
54534,1008009,2017-01-16 00:00:00,23,1.0,,2017-01-16 23:00:00,0
54535,1008009,2017-01-17 00:00:00,0,1.0,,2017-01-17 00:00:00,1
54536,1008009,2017-01-17 00:00:00,1,0.0666666666666667,,2017-01-17 01:00:00,1
54537,1008009,2017-01-17 00:00:00,2,0.0,,2017-01-17 02:00:00,1
54538,1008009,2017-01-17 00:00:00,3,0.0,,2017-01-17 03:00:00,1
54539,1008009,2017-01-17 00:00:00,4,0.0,,2017-01-17 04:00:00,1
54540,1008009,2017-01-17 00:00:00,5,0.0,,2017-01-17 05:00:00,1
54541,1008009,2017-01-17 00:00:00,6,0.0,,2017-01-17 06:00:00,1
54542,1008009,2017-01-17 00:00:00,7,0.0,,2017-01-17 07:00:00,1
54543,1008009,2017-01-17 00:00:00,8,0.0,,2017-01-17 08:00:00,1
54544,1008009,2017-01-17 00:00:00,9,0.0,,2017-01-17 09:00:00,1
54545,1008009,2017-01-17 00:00:00,10,0.0,,2017-01-17 10:00:00,1
54546,1008009,2017-01-17 00:00:00,11,0.0833333333333333,,2017-01-17 11:00:00,1
54547,1008009,2017-01-17 00:00:00,12,1.0,,2017-01-17 12:00:00,1
54548,1008009,2017-01-17 00:00:00,13,1.0,,2017-01-17 13:00:00,1
54549,1008009,2017-01-17 00:00:00,14,1.0,,2017-01-17 14:00:00,1
54550,1008009,2017-01-17 00:00:00,15,1.0,,2017-01-17 15:00:00,1
54551,1008009,2017-01-17 00:00:00,16,1.0,,2017-01-17 16:00:00,1
54552,1008009,2017-01-17 00:00:00,17,1.0,,2017-01-17 17:00:00,1
54553,1008009,2017-01-17 00:00:00,18,1.0,,2017-01-17 18:00:00,1
54554,1008009,2017-01-17 00:00:00,19,1.0,,2017-01-17 19:00:00,1
54555,1008009,2017-01-17 00:00:00,20,0.983333333333333,,2017-01-17 20:00:00,1
54556,1008009,2017-01-17 00:00:00,21,1.0,,2017-01-17 21:00:00,1
54557,1008009,2017-01-17 00:00:00,22,1.0,,2017-01-17 22:00:00,1
54558,1008009,2017-01-17 00:00:00,23,1.0,,2017-01-17 23:00:00,1
54559,1008009,2017-01-18 00:00:00,0,0.15,,2017-01-18 00:00:00,2
54560,1008009,2017-01-18 00:00:00,1,0.0,,2017-01-18 01:00:00,2
54561,1008009,2017-01-18 00:00:00,2,0.0,,2017-01-18 02:00:00,2
54562,1008009,2017-01-18 00:00:00,3,0.0,,2017-01-18 03:00:00,2
54563,1008009,2017-01-18 00:00:00,4,0.0,,2017-01-18 04:00:00,2
54564,1008009,2017-01-18 00:00:00,5,0.0,,2017-01-18 05:00:00,2
54565,1008009,2017-01-18 00:00:00,6,0.0,,2017-01-18 06:00:00,2
54566,1008009,2017-01-18 00:00:00,7,0.8,,2017-01-18 07:00:00,2
54567,1008009,2017-01-18 00:00:00,8,1.0,,2017-01-18 08:00:00,2
54568,1008009,2017-01-18 00:00:00,9,1.0,,2017-01-18 09:00:00,2
54569,1008009,2017-01-18 00:00:00,10,1.0,,2017-01-18 10:00:00,2
54570,1008009,2017-01-18 00:00:00,11,1.0,,2017-01-18 11:00:00,2
54571,1008009,2017-01-18 00:00:00,12,1.0,,2017-01-18 12:00:00,2
54572,1008009,2017-01-18 00:00:00,13,1.0,,2017-01-18 13:00:00,2
54573,1008009,2017-01-18 00:00:00,14,1.0,,2017-01-18 14:00:00,2
54574,1008009,2017-01-18 00:00:00,15,1.0,,2017-01-18 15:00:00,2
54575,1008009,2017-01-18 00:00:00,16,1.0,,2017-01-18 16:00:00,2
54576,1008009,2017-01-18 00:00:00,17,1.0,,2017-01-18 17:00:00,2
54577,1008009,2017-01-18 00:00:00,18,1.0,,2017-01-18 18:00:00,2
54578,1008009,2017-01-18 00:00:00,19,1.0,,2017-01-18 19:00:00,2
54579,1008009,2017-01-18 00:00:00,20,1.0,,2017-01-18 20:00:00,2
54580,1008009,2017-01-18 00:00:00,21,1.0,,2017-01-18 21:00:00,2
54581,1008009,2017-01-18 00:00:00,22,1.0,,2017-01-18 22:00:00,2
54582,1008009,2017-01-18 00:00:00,23,1.0,,2017-01-18 23:00:00,2
54583,1008009,2017-01-19 00:00:00,0,1.0,,2017-01-19 00:00:00,3
54584,1008009,2017-01-19 00:00:00,1,1.0,,2017-01-19 01:00:00,3
54585,1008009,2017-01-19 00:00:00,2,1.0,,2017-01-19 02:00:00,3
54586,1008009,2017-01-19 00:00:00,3,1.0,,2017-01-19 03:00:00,3
54587,1008009,2017-01-19 00:00:00,4,1.0,,2017-01-19 04:00:00,3
54588,1008009,2017-01-19 00:00:00,5,1.0,,2017-01-19 05:00:00,3
54589,1008009,2017-01-19 00:00:00,6,1.0,,2017-01-19 06:00:00,3
54590,1008009,2017-01-19 00:00:00,7,1.0,,2017-01-19 07:00:00,3
54591,1008009,2017-01-19 00:00:00,8,1.0,,2017-01-19 08:00:00,3
54592,1008009,2017-01-19 00:00:00,9,1.0,,2017-01-19 09:00:00,3
54593,1008009,2017-01-19 00:00:00,10,1.0,,2017-01-19 10:00:00,3
54594,1008009,2017-01-19 00:00:00,11,1.0,,2017-01-19 11:00:00,3
54595,1008009,2017-01-19 00:00:00,12,1.0,,2017-01-19 12:00:00,3
54596,1008009,2017-01-19 00:00:00,13,1.0,,2017-01-19 13:00:00,3
54597,1008009,2017-01-19 00:00:00,14,1.0,,2017-01-19 14:00:00,3
54598,1008009,2017-01-19 00:00:00,15,1.0,,2017-01-19 15:00:00,3
54599,1008009,2017-01-19 00:00:00,16,1.0,,2017-01-19 16:00:00,3
54600,1008009,2017-01-19 00:00:00,17,1.0,,2017-01-19 17:00:00,3
54601,1008009,2017-01-19 00:00:00,18,1.0,,2017-01-19 18:00:00,3
54602,1008009,2017-01-19 00:00:00,19,1.0,,2017-01-19 19:00:00,3
54603,1008009,2017-01-19 00:00:00,20,1.0,,2017-01-19 20:00:00,3
54604,1008009,2017-01-19 00:00:00,21,1.0,,2017-01-19 21:00:00,3
54605,1008009,2017-01-19 00:00:00,22,0.933333333333333,,2017-01-19 22:00:00,3
54606,1008009,2017-01-19 00:00:00,23,0.983333333333333,,2017-01-19 23:00:00,3
54607,1008009,2017-01-20 00:00:00,0,0.983333333333333,,2017-01-20 00:00:00,4
54608,1008009,2017-01-20 00:00:00,1,1.0,,2017-01-20 01:00:00,4
54609,1008009,2017-01-20 00:00:00,2,1.0,,2017-01-20 02:00:00,4
54610,1008009,2017-01-20 00:00:00,3,1.0,,2017-01-20 03:00:00,4
54611,1008009,2017-01-20 00:00:00,4,1.0,,2017-01-20 04:00:00,4
54612,1008009,2017-01-20 00:00:00,5,1.0,,2017-01-20 05:00:00,4
54613,1008009,2017-01-20 00:00:00,6,1.0,,2017-01-20 06:00:00,4
54614,1008009,2017-01-20 00:00:00,7,1.0,,2017-01-20 07:00:00,4
54615,1008009,2017-01-20 00:00:00,8,0.966666666666667,,2017-01-20 08:00:00,4
54616,1008009,2017-01-20 00:00:00,9,1.0,,2017-01-20 09:00:00,4
54617,1008009,2017-01-20 00:00:00,10,0.966666666666667,,2017-01-20 10:00:00,4
54618,1008009,2017-01-20 00:00:00,11,1.0,,2017-01-20 11:00:00,4
54619,1008009,2017-01-20 00:00:00,12,1.0,,2017-01-20 12:00:00,4
54620,1008009,2017-01-20 00:00:00,13,1.0,,2017-01-20 13:00:00,4
54621,1008009,2017-01-20 00:00:00,14,1.0,,2017-01-20 14:00:00,4
54622,1008009,2017-01-20 00:00:00,15,0.933333333333333,,2017-01-20 15:00:00,4
54623,1008009,2017-01-20 00:00:00,16,1.0,,2017-01-20 16:00:00,4
54624,1008009,2017-01-20 00:00:00,17,1.0,,2017-01-20 17:00:00,4
54625,1008009,2017-01-20 00:00:00,18,1.0,,2017-01-20 18:00:00,4
54626,1008009,2017-01-20 00:00:00,19,0.983333333333333,,2017-01-20 19:00:00,4
54627,1008009,2017-01-20 00:00:00,20,1.0,,2017-01-20 20:00:00,4
54628,1008009,2017-01-20 00:00:00,21,1.0,,2017-01-20 21:00:00,4
54629,1008009,2017-01-20 00:00:00,22,1.0,,2017-01-20 22:00:00,4
54630,1008009,2017-01-20 00:00:00,23,1.0,,2017-01-20 23:00:00,4
54631,1008009,2017-01-21 00:00:00,0,1.0,,2017-01-21 00:00:00,5
54632,1008009,2017-01-21 00:00:00,1,0.916666666666667,,2017-01-21 01:00:00,5
54633,1008009,2017-01-21 00:00:00,2,0.3666666666666671,,2017-01-21 02:00:00,5
54634,1008009,2017-01-21 00:00:00,3,0.0,,2017-01-21 03:00:00,5
54635,1008009,2017-01-21 00:00:00,4,0.0,,2017-01-21 04:00:00,5
54636,1008009,2017-01-21 00:00:00,5,0.18333333333333302,,2017-01-21 05:00:00,5
54637,1008009,2017-01-21 00:00:00,6,0.0,,2017-01-21 06:00:00,5
54638,1008009,2017-01-21 00:00:00,7,0.0,,2017-01-21 07:00:00,5
54639,1008009,2017-01-21 00:00:00,8,0.0,,2017-01-21 08:00:00,5
54640,1008009,2017-01-21 00:00:00,9,0.0,,2017-01-21 09:00:00,5
54641,1008009,2017-01-21 00:00:00,10,0.0,,2017-01-21 10:00:00,5
54642,1008009,2017-01-21 00:00:00,11,0.0,,2017-01-21 11:00:00,5
54643,1008009,2017-01-21 00:00:00,12,0.0,,2017-01-21 12:00:00,5
54644,1008009,2017-01-21 00:00:00,13,0.516666666666667,,2017-01-21 13:00:00,5
54645,1008009,2017-01-21 00:00:00,14,1.0,,2017-01-21 14:00:00,5
54646,1008009,2017-01-21 00:00:00,15,0.783333333333333,,2017-01-21 15:00:00,5
54647,1008009,2017-01-21 00:00:00,16,1.0,,2017-01-21 16:00:00,5
54648,1008009,2017-01-21 00:00:00,17,1.0,,2017-01-21 17:00:00,5
54649,1008009,2017-01-21 00:00:00,18,1.0,,2017-01-21 18:00:00,5
54650,1008009,2017-01-21 00:00:00,19,1.0,,2017-01-21 19:00:00,5
54651,1008009,2017-01-21 00:00:00,20,1.0,,2017-01-21 20:00:00,5
54652,1008009,2017-01-21 00:00:00,21,1.0,,2017-01-21 21:00:00,5
54653,1008009,2017-01-21 00:00:00,22,0.966666666666667,,2017-01-21 22:00:00,5
54654,1008009,2017-01-21 00:00:00,23,1.0,,2017-01-21 23:00:00,5
54655,1008009,2017-01-22 00:00:00,0,1.0,,2017-01-22 00:00:00,6
54656,1008009,2017-01-22 00:00:00,1,1.0,,2017-01-22 01:00:00,6
54657,1008009,2017-01-22 00:00:00,2,0.21666666666666698,,2017-01-22 02:00:00,6
54658,1008009,2017-01-22 00:00:00,3,0.0,,2017-01-22 03:00:00,6
54659,1008009,2017-01-22 00:00:00,4,0.05,,2017-01-22 04:00:00,6
54660,1008009,2017-01-22 00:00:00,5,0.0,,2017-01-22 05:00:00,6
54661,1008009,2017-01-22 00:00:00,6,0.0,,2017-01-22 06:00:00,6
54662,1008009,2017-01-22 00:00:00,7,0.0,,2017-01-22 07:00:00,6
54663,1008009,2017-01-22 00:00:00,8,0.566666666666667,,2017-01-22 08:00:00,6
54664,1008009,2017-01-22 00:00:00,9,1.0,,2017-01-22 09:00:00,6
54665,1008009,2017-01-22 00:00:00,10,1.0,,2017-01-22 10:00:00,6
54666,1008009,2017-01-22 00:00:00,11,1.0,,2017-01-22 11:00:00,6
54667,1008009,2017-01-22 00:00:00,12,1.0,,2017-01-22 12:00:00,6
54668,1008009,2017-01-22 00:00:00,13,1.0,,2017-01-22 13:00:00,6
54669,1008009,2017-01-22 00:00:00,14,1.0,,2017-01-22 14:00:00,6
54670,1008009,2017-01-22 00:00:00,15,1.0,,2017-01-22 15:00:00,6
54671,1008009,2017-01-22 00:00:00,16,1.0,,2017-01-22 16:00:00,6
54672,1008009,2017-01-22 00:00:00,17,1.0,,2017-01-22 17:00:00,6
54673,1008009,2017-01-22 00:00:00,18,1.0,,2017-01-22 18:00:00,6
54674,1008009,2017-01-22 00:00:00,19,1.0,,2017-01-22 19:00:00,6
54675,1008009,2017-01-22 00:00:00,20,1.0,,2017-01-22 20:00:00,6
54676,1008009,2017-01-22 00:00:00,21,1.0,,2017-01-22 21:00:00,6
54677,1008009,2017-01-22 00:00:00,22,1.0,,2017-01-22 22:00:00,6
54678,1008009,2017-01-22 00:00:00,23,1.0,,2017-01-22 23:00:00,6
54679,1008009,2017-01-23 00:00:00,0,1.0,,2017-01-23 00:00:00,0
54680,1008009,2017-01-23 00:00:00,1,0.33333333333333304,,2017-01-23 01:00:00,0
54681,1008009,2017-01-23 00:00:00,2,0.0333333333333333,,2017-01-23 02:00:00,0
54682,1008009,2017-01-23 00:00:00,3,0.0,,2017-01-23 03:00:00,0
54683,1008009,2017-01-23 00:00:00,4,0.0,,2017-01-23 04:00:00,0
54684,1008009,2017-01-23 00:00:00,5,0.0166666666666667,,2017-01-23 05:00:00,0
54685,1008009,2017-01-23 00:00:00,6,0.0,,2017-01-23 06:00:00,0
54686,1008009,2017-01-23 00:00:00,7,0.23333333333333303,,2017-01-23 07:00:00,0
54687,1008009,2017-01-23 00:00:00,8,0.0,,2017-01-23 08:00:00,0
54688,1008009,2017-01-23 00:00:00,9,0.0,,2017-01-23 09:00:00,0
54689,1008009,2017-01-23 00:00:00,10,0.0833333333333333,,2017-01-23 10:00:00,0
54690,1008009,2017-01-23 00:00:00,11,0.0,,2017-01-23 11:00:00,0
54691,1008009,2017-01-23 00:00:00,12,0.0833333333333333,,2017-01-23 12:00:00,0
54692,1008009,2017-01-23 00:00:00,13,0.0,,2017-01-23 13:00:00,0
54693,1008009,2017-01-23 00:00:00,14,0.0,,2017-01-23 14:00:00,0
54694,1008009,2017-01-23 00:00:00,15,0.0,,2017-01-23 15:00:00,0
54695,1008009,2017-01-23 00:00:00,16,0.0,,2017-01-23 16:00:00,0
54696,1008009,2017-01-23 00:00:00,17,0.266666666666667,,2017-01-23 17:00:00,0
54697,1008009,2017-01-23 00:00:00,18,0.0,,2017-01-23 18:00:00,0
54698,1008009,2017-01-23 00:00:00,19,0.0833333333333333,,2017-01-23 19:00:00,0
54699,1008009,2017-01-23 00:00:00,20,0.0,,2017-01-23 20:00:00,0
54700,1008009,2017-01-23 00:00:00,21,0.45,,2017-01-23 21:00:00,0
54701,1008009,2017-01-23 00:00:00,22,0.133333333333333,,2017-01-23 22:00:00,0
54702,1008009,2017-01-23 00:00:00,23,0.0,,2017-01-23 23:00:00,0
54703,1008009,2017-01-24 00:00:00,0,0.0,,2017-01-24 00:00:00,1
54704,1008009,2017-01-24 00:00:00,1,0.0166666666666667,,2017-01-24 01:00:00,1
54705,1008009,2017-01-24 00:00:00,2,0.0,,2017-01-24 02:00:00,1
54706,1008009,2017-01-24 00:00:00,3,0.0,,2017-01-24 03:00:00,1
54707,1008009,2017-01-24 00:00:00,4,0.0,,2017-01-24 04:00:00,1
54708,1008009,2017-01-24 00:00:00,5,0.0,,2017-01-24 05:00:00,1
54709,1008009,2017-01-24 00:00:00,6,0.0,,2017-01-24 06:00:00,1
54710,1008009,2017-01-24 00:00:00,7,0.0166666666666667,,2017-01-24 07:00:00,1
54711,1008009,2017-01-24 00:00:00,8,0.716666666666667,,2017-01-24 08:00:00,1
54712,1008009,2017-01-24 00:00:00,9,1.0,,2017-01-24 09:00:00,1
54713,1008009,2017-01-24 00:00:00,10,1.0,,2017-01-24 10:00:00,1
54714,1008009,2017-01-24 00:00:00,11,1.0,,2017-01-24 11:00:00,1
54715,1008009,2017-01-24 00:00:00,12,1.0,,2017-01-24 12:00:00,1
54716,1008009,2017-01-24 00:00:00,13,1.0,,2017-01-24 13:00:00,1
54717,1008009,2017-01-24 00:00:00,14,0.983333333333333,,2017-01-24 14:00:00,1
54718,1008009,2017-01-24 00:00:00,15,1.0,,2017-01-24 15:00:00,1
54719,1008009,2017-01-24 00:00:00,16,0.983333333333333,,2017-01-24 16:00:00,1
54720,1008009,2017-01-24 00:00:00,17,1.0,,2017-01-24 17:00:00,1
54721,1008009,2017-01-24 00:00:00,18,0.983333333333333,,2017-01-24 18:00:00,1
54722,1008009,2017-01-24 00:00:00,19,1.0,,2017-01-24 19:00:00,1
54723,1008009,2017-01-24 00:00:00,20,1.0,,2017-01-24 20:00:00,1
54724,1008009,2017-01-24 00:00:00,21,1.0,,2017-01-24 21:00:00,1
54725,1008009,2017-01-24 00:00:00,22,1.0,,2017-01-24 22:00:00,1
54726,1008009,2017-01-24 00:00:00,23,1.0,,2017-01-24 23:00:00,1
54727,1008009,2017-01-25 00:00:00,0,0.933333333333333,,2017-01-25 00:00:00,2
54728,1008009,2017-01-25 00:00:00,1,0.0,,2017-01-25 01:00:00,2
54729,1008009,2017-01-25 00:00:00,2,0.0,,2017-01-25 02:00:00,2
54730,1008009,2017-01-25 00:00:00,3,0.133333333333333,,2017-01-25 03:00:00,2
54731,1008009,2017-01-25 00:00:00,4,0.1,,2017-01-25 04:00:00,2
54732,1008009,2017-01-25 00:00:00,5,0.18333333333333302,,2017-01-25 05:00:00,2
54733,1008009,2017-01-25 00:00:00,6,0.0,,2017-01-25 06:00:00,2
54734,1008009,2017-01-25 00:00:00,7,0.0,,2017-01-25 07:00:00,2
54735,1008009,2017-01-25 00:00:00,8,0.8,,2017-01-25 08:00:00,2
54736,1008009,2017-01-25 00:00:00,9,1.0,,2017-01-25 09:00:00,2
54737,1008009,2017-01-25 00:00:00,10,1.0,,2017-01-25 10:00:00,2
54738,1008009,2017-01-25 00:00:00,11,1.0,,2017-01-25 11:00:00,2
54739,1008009,2017-01-25 00:00:00,12,1.0,,2017-01-25 12:00:00,2
54740,1008009,2017-01-25 00:00:00,13,1.0,,2017-01-25 13:00:00,2
54741,1008009,2017-01-25 00:00:00,14,1.0,,2017-01-25 14:00:00,2
54742,1008009,2017-01-25 00:00:00,15,1.0,,2017-01-25 15:00:00,2
54743,1008009,2017-01-25 00:00:00,16,1.0,,2017-01-25 16:00:00,2
54744,1008009,2017-01-25 00:00:00,17,1.0,,2017-01-25 17:00:00,2
54745,1008009,2017-01-25 00:00:00,18,0.966666666666667,,2017-01-25 18:00:00,2
54746,1008009,2017-01-25 00:00:00,19,1.0,,2017-01-25 19:00:00,2
54747,1008009,2017-01-25 00:00:00,20,1.0,,2017-01-25 20:00:00,2
54748,1008009,2017-01-25 00:00:00,21,1.0,,2017-01-25 21:00:00,2
54749,1008009,2017-01-25 00:00:00,22,0.766666666666667,,2017-01-25 22:00:00,2
54750,1008009,2017-01-25 00:00:00,23,0.0,,2017-01-25 23:00:00,2
54751,1008009,2017-01-26 00:00:00,0,0.5,,2017-01-26 00:00:00,3
54752,1008009,2017-01-26 00:00:00,1,0.0,,2017-01-26 01:00:00,3
54753,1008009,2017-01-26 00:00:00,2,0.0,,2017-01-26 02:00:00,3
54754,1008009,2017-01-26 00:00:00,3,0.0,,2017-01-26 03:00:00,3
54755,1008009,2017-01-26 00:00:00,4,0.0,,2017-01-26 04:00:00,3
54756,1008009,2017-01-26 00:00:00,5,0.35,,2017-01-26 05:00:00,3
54757,1008009,2017-01-26 00:00:00,6,0.0,,2017-01-26 06:00:00,3
54758,1008009,2017-01-26 00:00:00,7,0.266666666666667,,2017-01-26 07:00:00,3
54759,1008009,2017-01-26 00:00:00,8,1.0,,2017-01-26 08:00:00,3
54760,1008009,2017-01-26 00:00:00,9,1.0,,2017-01-26 09:00:00,3
54761,1008009,2017-01-26 00:00:00,10,1.0,,2017-01-26 10:00:00,3
54762,1008009,2017-01-26 00:00:00,11,1.0,,2017-01-26 11:00:00,3
54763,1008009,2017-01-26 00:00:00,12,1.0,,2017-01-26 12:00:00,3
54764,1008009,2017-01-26 00:00:00,13,1.0,,2017-01-26 13:00:00,3
54765,1008009,2017-01-26 00:00:00,14,1.0,,2017-01-26 14:00:00,3
54766,1008009,2017-01-26 00:00:00,15,1.0,,2017-01-26 15:00:00,3
54767,1008009,2017-01-26 00:00:00,16,1.0,,2017-01-26 16:00:00,3
54768,1008009,2017-01-26 00:00:00,17,0.883333333333333,,2017-01-26 17:00:00,3
54769,1008009,2017-01-26 00:00:00,18,0.0,,2017-01-26 18:00:00,3
54770,1008009,2017-01-26 00:00:00,19,0.23333333333333303,,2017-01-26 19:00:00,3
54771,1008009,2017-01-26 00:00:00,20,0.4333333333333329,,2017-01-26 20:00:00,3
54772,1008009,2017-01-26 00:00:00,21,0.0,,2017-01-26 21:00:00,3
54773,1008009,2017-01-26 00:00:00,22,0.0,,2017-01-26 22:00:00,3
54774,1008009,2017-01-26 00:00:00,23,0.0,,2017-01-26 23:00:00,3
54775,1008009,2017-01-27 00:00:00,0,0.0,,2017-01-27 00:00:00,4
54776,1008009,2017-01-27 00:00:00,1,0.0,,2017-01-27 01:00:00,4
54777,1008009,2017-01-27 00:00:00,2,0.0,,2017-01-27 02:00:00,4
54778,1008009,2017-01-27 00:00:00,3,0.0,,2017-01-27 03:00:00,4
54779,1008009,2017-01-27 00:00:00,4,0.0,,2017-01-27 04:00:00,4
54780,1008009,2017-01-27 00:00:00,5,0.0,,2017-01-27 05:00:00,4
54781,1008009,2017-01-27 00:00:00,6,0.0,,2017-01-27 06:00:00,4
54782,1008009,2017-01-27 00:00:00,7,0.0,,2017-01-27 07:00:00,4
54783,1008009,2017-01-27 00:00:00,8,0.0,,2017-01-27 08:00:00,4
54784,1008009,2017-01-27 00:00:00,9,0.0,,2017-01-27 09:00:00,4
54785,1008009,2017-01-27 00:00:00,10,0.0,,2017-01-27 10:00:00,4
54786,1008009,2017-01-27 00:00:00,11,0.0,,2017-01-27 11:00:00,4
54787,1008009,2017-01-27 00:00:00,12,0.0,,2017-01-27 12:00:00,4
54788,1008009,2017-01-27 00:00:00,13,0.566666666666667,,2017-01-27 13:00:00,4
54789,1008009,2017-01-27 00:00:00,14,0.133333333333333,,2017-01-27 14:00:00,4
54790,1008009,2017-01-27 00:00:00,15,0.0666666666666667,,2017-01-27 15:00:00,4
54791,1008009,2017-01-27 00:00:00,16,0.0333333333333333,,2017-01-27 16:00:00,4
54792,1008009,2017-01-27 00:00:00,17,0.0,,2017-01-27 17:00:00,4
54793,1008009,2017-01-27 00:00:00,18,0.0,,2017-01-27 18:00:00,4
54794,1008009,2017-01-27 00:00:00,19,0.0,,2017-01-27 19:00:00,4
54795,1008009,2017-01-27 00:00:00,20,0.0,,2017-01-27 20:00:00,4
54796,1008009,2017-01-27 00:00:00,21,0.0,,2017-01-27 21:00:00,4
54797,1008009,2017-01-27 00:00:00,22,0.0,,2017-01-27 22:00:00,4
54798,1008009,2017-01-27 00:00:00,23,0.0,,2017-01-27 23:00:00,4
54799,1008009,2017-01-28 00:00:00,0,0.0,,2017-01-28 00:00:00,5
54800,1008009,2017-01-28 00:00:00,1,0.0,,2017-01-28 01:00:00,5
54801,1008009,2017-01-28 00:00:00,2,0.0,,2017-01-28 02:00:00,5
54802,1008009,2017-01-28 00:00:00,3,0.0333333333333333,,2017-01-28 03:00:00,5
54803,1008009,2017-01-28 00:00:00,4,0.0,,2017-01-28 04:00:00,5
54804,1008009,2017-01-28 00:00:00,5,0.0,,2017-01-28 05:00:00,5
54805,1008009,2017-01-28 00:00:00,6,0.0,,2017-01-28 06:00:00,5
54806,1008009,2017-01-28 00:00:00,7,0.583333333333333,,2017-01-28 07:00:00,5
54807,1008009,2017-01-28 00:00:00,8,1.0,,2017-01-28 08:00:00,5
54808,1008009,2017-01-28 00:00:00,9,1.0,,2017-01-28 09:00:00,5
54809,1008009,2017-01-28 00:00:00,10,1.0,,2017-01-28 10:00:00,5
54810,1008009,2017-01-28 00:00:00,11,1.0,,2017-01-28 11:00:00,5
54811,1008009,2017-01-28 00:00:00,12,1.0,,2017-01-28 12:00:00,5
54812,1008009,2017-01-28 00:00:00,13,1.0,,2017-01-28 13:00:00,5
54813,1008009,2017-01-28 00:00:00,14,1.0,,2017-01-28 14:00:00,5
54814,1008009,2017-01-28 00:00:00,15,1.0,,2017-01-28 15:00:00,5
54815,1008009,2017-01-28 00:00:00,16,1.0,,2017-01-28 16:00:00,5
54816,1008009,2017-01-28 00:00:00,17,1.0,,2017-01-28 17:00:00,5
54817,1008009,2017-01-28 00:00:00,18,1.0,,2017-01-28 18:00:00,5
54818,1008009,2017-01-28 00:00:00,19,1.0,,2017-01-28 19:00:00,5
54819,1008009,2017-01-28 00:00:00,20,1.0,,2017-01-28 20:00:00,5
54820,1008009,2017-01-28 00:00:00,21,1.0,,2017-01-28 21:00:00,5
54821,1008009,2017-01-28 00:00:00,22,1.0,,2017-01-28 22:00:00,5
54822,1008009,2017-01-28 00:00:00,23,1.0,,2017-01-28 23:00:00,5
54823,1008009,2017-01-29 00:00:00,0,1.0,,2017-01-29 00:00:00,6
54824,1008009,2017-01-29 00:00:00,1,0.2,,2017-01-29 01:00:00,6
54825,1008009,2017-01-29 00:00:00,2,0.0,,2017-01-29 02:00:00,6
54826,1008009,2017-01-29 00:00:00,3,0.0,,2017-01-29 03:00:00,6
54827,1008009,2017-01-29 00:00:00,4,0.0,,2017-01-29 04:00:00,6
54828,1008009,2017-01-29 00:00:00,5,0.0,,2017-01-29 05:00:00,6
54829,1008009,2017-01-29 00:00:00,6,0.0,,2017-01-29 06:00:00,6
54830,1008009,2017-01-29 00:00:00,7,0.0,,2017-01-29 07:00:00,6
54831,1008009,2017-01-29 00:00:00,8,0.0,,2017-01-29 08:00:00,6
54832,1008009,2017-01-29 00:00:00,9,0.0,,2017-01-29 09:00:00,6
54833,1008009,2017-01-29 00:00:00,10,0.0,,2017-01-29 10:00:00,6
54834,1008009,2017-01-29 00:00:00,11,0.0,,2017-01-29 11:00:00,6
54835,1008009,2017-01-29 00:00:00,12,0.0,,2017-01-29 12:00:00,6
54836,1008009,2017-01-29 00:00:00,13,0.0,,2017-01-29 13:00:00,6
54837,1008009,2017-01-29 00:00:00,14,0.0,,2017-01-29 14:00:00,6
54838,1008009,2017-01-29 00:00:00,15,0.0,,2017-01-29 15:00:00,6
54839,1008009,2017-01-29 00:00:00,16,0.0,,2017-01-29 16:00:00,6
54840,1008009,2017-01-29 00:00:00,17,0.0166666666666667,,2017-01-29 17:00:00,6
54841,1008009,2017-01-29 00:00:00,18,,,2017-01-29 18:00:00,6
54842,1008009,2017-01-29 00:00:00,19,,,2017-01-29 19:00:00,6
54843,1008009,2017-01-29 00:00:00,20,,,2017-01-29 20:00:00,6
54844,1008009,2017-01-29 00:00:00,21,0.0,,2017-01-29 21:00:00,6
54845,1008009,2017-01-29 00:00:00,22,0.0,,2017-01-29 22:00:00,6
54846,1008009,2017-01-29 00:00:00,23,0.0,,2017-01-29 23:00:00,6
54847,1008009,2017-01-30 00:00:00,0,0.0,,2017-01-30 00:00:00,0
54848,1008009,2017-01-30 00:00:00,1,0.0,,2017-01-30 01:00:00,0
54849,1008009,2017-01-30 00:00:00,2,0.0,,2017-01-30 02:00:00,0
54850,1008009,2017-01-30 00:00:00,3,0.316666666666667,,2017-01-30 03:00:00,0
54851,1008009,2017-01-30 00:00:00,4,0.3666666666666671,,2017-01-30 04:00:00,0
54852,1008009,2017-01-30 00:00:00,5,0.0,,2017-01-30 05:00:00,0
54853,1008009,2017-01-30 00:00:00,6,0.0166666666666667,,2017-01-30 06:00:00,0
54854,1008009,2017-01-30 00:00:00,7,0.0,,2017-01-30 07:00:00,0
54855,1008009,2017-01-30 00:00:00,8,0.0,,2017-01-30 08:00:00,0
54856,1008009,2017-01-30 00:00:00,9,0.0,,2017-01-30 09:00:00,0
54857,1008009,2017-01-30 00:00:00,10,0.0,,2017-01-30 10:00:00,0
54858,1008009,2017-01-30 00:00:00,11,0.133333333333333,,2017-01-30 11:00:00,0
54859,1008009,2017-01-30 00:00:00,12,0.23333333333333303,,2017-01-30 12:00:00,0
54860,1008009,2017-01-30 00:00:00,13,0.0,,2017-01-30 13:00:00,0
54861,1008009,2017-01-30 00:00:00,14,0.0,,2017-01-30 14:00:00,0
54862,1008009,2017-01-30 00:00:00,15,0.0,,2017-01-30 15:00:00,0
54863,1008009,2017-01-30 00:00:00,16,0.3666666666666671,,2017-01-30 16:00:00,0
54864,1008009,2017-01-30 00:00:00,17,0.9,,2017-01-30 17:00:00,0
54865,1008009,2017-01-30 00:00:00,18,0.883333333333333,,2017-01-30 18:00:00,0
54866,1008009,2017-01-30 00:00:00,19,0.9,,2017-01-30 19:00:00,0
54867,1008009,2017-01-30 00:00:00,20,1.0,,2017-01-30 20:00:00,0
54868,1008009,2017-01-30 00:00:00,21,1.0,,2017-01-30 21:00:00,0
54869,1008009,2017-01-30 00:00:00,22,1.0,,2017-01-30 22:00:00,0
54870,1008009,2017-01-30 00:00:00,23,1.0,,2017-01-30 23:00:00,0
54871,1008009,2017-01-31 00:00:00,0,,,2017-01-31 00:00:00,1
54872,1008009,2017-01-31 00:00:00,1,0.0,,2017-01-31 01:00:00,1
54873,1008009,2017-01-31 00:00:00,2,0.0,,2017-01-31 02:00:00,1
54874,1008009,2017-01-31 00:00:00,3,0.0,,2017-01-31 03:00:00,1
54875,1008009,2017-01-31 00:00:00,4,0.0,,2017-01-31 04:00:00,1
54876,1008009,2017-01-31 00:00:00,5,0.0,,2017-01-31 05:00:00,1
54877,1008009,2017-01-31 00:00:00,6,0.0,,2017-01-31 06:00:00,1
54878,1008009,2017-01-31 00:00:00,7,0.18333333333333302,,2017-01-31 07:00:00,1
54879,1008009,2017-01-31 00:00:00,8,0.0,,2017-01-31 08:00:00,1
54880,1008009,2017-01-31 00:00:00,9,0.0,,2017-01-31 09:00:00,1
54881,1008009,2017-01-31 00:00:00,10,0.0,,2017-01-31 10:00:00,1
54882,1008009,2017-01-31 00:00:00,11,0.0,,2017-01-31 11:00:00,1
54883,1008009,2017-01-31 00:00:00,12,0.0,,2017-01-31 12:00:00,1
54884,1008009,2017-01-31 00:00:00,13,0.0,,2017-01-31 13:00:00,1
54885,1008009,2017-01-31 00:00:00,14,0.0,,2017-01-31 14:00:00,1
54886,1008009,2017-01-31 00:00:00,15,0.25,,2017-01-31 15:00:00,1
54887,1008009,2017-01-31 00:00:00,16,0.0,,2017-01-31 16:00:00,1
54888,1008009,2017-01-31 00:00:00,17,0.0,,2017-01-31 17:00:00,1
54889,1008009,2017-01-31 00:00:00,18,0.0,,2017-01-31 18:00:00,1
54890,1008009,2017-01-31 00:00:00,19,0.0,,2017-01-31 19:00:00,1
54891,1008009,2017-01-31 00:00:00,20,0.0,,2017-01-31 20:00:00,1
54892,1008009,2017-01-31 00:00:00,21,0.0,,2017-01-31 21:00:00,1
54893,1008009,2017-01-31 00:00:00,22,0.0,,2017-01-31 22:00:00,1
54894,1008009,2017-01-31 00:00:00,23,0.0,,2017-01-31 23:00:00,1
54895,1008009,2017-02-01 00:00:00,0,0.0,V107,2017-02-01 00:00:00,2
54896,1008009,2017-02-01 00:00:00,1,0.0,V107,2017-02-01 01:00:00,2
54897,1008009,2017-02-01 00:00:00,2,0.0,V107,2017-02-01 02:00:00,2
54898,1008009,2017-02-01 00:00:00,3,0.0,V107,2017-02-01 03:00:00,2
54899,1008009,2017-02-01 00:00:00,4,0.0,V107,2017-02-01 04:00:00,2
54900,1008009,2017-02-01 00:00:00,5,0.4166666666666671,V107,2017-02-01 05:00:00,2
54901,1008009,2017-02-01 00:00:00,6,0.0,V107,2017-02-01 06:00:00,2
54902,1008009,2017-02-01 00:00:00,7,0.18333333333333302,V107,2017-02-01 07:00:00,2
54903,1008009,2017-02-01 00:00:00,8,0.3833333333333329,V107,2017-02-01 08:00:00,2
54904,1008009,2017-02-01 00:00:00,9,0.15,V107,2017-02-01 09:00:00,2
54905,1008009,2017-02-01 00:00:00,10,0.65,V107,2017-02-01 10:00:00,2
54906,1008009,2017-02-01 00:00:00,11,1.0,V107,2017-02-01 11:00:00,2
54907,1008009,2017-02-01 00:00:00,12,1.0,V107,2017-02-01 12:00:00,2
54908,1008009,2017-02-01 00:00:00,13,,V107,2017-02-01 13:00:00,2
54909,1008009,2017-02-01 00:00:00,14,,V107,2017-02-01 14:00:00,2
